E: 1336457815.760251 0003 002f 0
E: 1336457815.760251 0003 0030 4
E: 1336457815.760251 0003 0031 0
E: 1336457815.760251 0003 0032 0
E: 1336457815.760251 0003 0033 0
E: 1336457815.760251 0003 0034 0
E: 1336457815.760251 0003 0035 1862
E: 1336457815.760251 0003 0036 442
E: 1336457815.760251 0003 0037 0
E: 1336457815.760251 0003 0038 0
E: 1336457815.760251 0003 0039 284
E: 1336457815.760251 0003 003a 38
E: 1336457815.760251 0003 003b 0
E: 1336457815.760251 0003 002f 1
E: 1336457815.760251 0003 0030 1
E: 1336457815.760251 0003 0031 0
E: 1336457815.760251 0003 0032 0
E: 1336457815.760251 0003 0033 0
E: 1336457815.760251 0003 0034 0
E: 1336457815.760251 0003 0035 1809
E: 1336457815.760251 0003 0036 991
E: 1336457815.760251 0003 0037 0
E: 1336457815.760251 0003 0038 0
E: 1336457815.760251 0003 0039 285
E: 1336457815.760251 0003 003a 25
E: 1336457815.760251 0003 003b 0
E: 1336457815.760251 0003 002f 2
E: 1336457815.760251 0003 0039 -1
E: 1336457815.760251 0003 002f 3
E: 1336457815.760251 0003 0039 -1
E: 1336457815.760251 0003 002f 4
E: 1336457815.760251 0003 0039 -1
E: 1336457815.760251 0003 002f 5
E: 1336457815.760251 0003 0039 -1
E: 1336457815.760251 0003 002f 6
E: 1336457815.760251 0003 0039 -1
E: 1336457815.760251 0003 002f 7
E: 1336457815.760251 0003 0039 -1
E: 1336457815.760251 0003 002f 8
E: 1336457815.760251 0003 0039 -1
E: 1336457815.760251 0003 002f 9
E: 1336457815.760251 0003 0039 -1
E: 1336457815.760251 0003 002f 1
E: 1336457815.760251 0001 014a 1
E: 1336457815.760251 0001 014d 1
E: 1336457815.760251 0000 0000 0
E: 1336457815.766723 0003 002f 0
E: 1336457815.766723 0003 0035 1861
E: 1336457815.766725 0003 003a 44
E: 1336457815.766731 0003 002f 1
E: 1336457815.766731 0003 0035 1808
E: 1336457815.766732 0003 0036 990
E: 1336457815.766734 0003 003a 48
E: 1336457815.766735 0003 0030 2
E: 1336457815.766741 0003 0000 1861
E: 1336457815.766743 0003 0018 44
E: 1336457815.766744 0000 0000 0
E: 1336457815.773325 0003 002f 0
E: 1336457815.773325 0003 003a 42
E: 1336457815.773332 0003 002f 1
E: 1336457815.773332 0003 003a 43
E: 1336457815.773334 0003 0030 1
E: 1336457815.773341 0003 0018 42
E: 1336457815.773342 0000 0000 0
E: 1336457815.779897 0003 002f 0
E: 1336457815.779897 0003 003a 47
E: 1336457815.779904 0003 002f 1
E: 1336457815.779904 0003 003a 48
E: 1336457815.779912 0003 0018 47
E: 1336457815.779914 0000 0000 0
E: 1336457815.786628 0003 002f 0
E: 1336457815.786629 0003 003a 48
E: 1336457815.786636 0003 002f 1
E: 1336457815.786636 0003 003a 50
E: 1336457815.786637 0003 0030 3
E: 1336457815.786645 0003 0018 48
E: 1336457815.786646 0000 0000 0
E: 1336457815.793312 0003 002f 0
E: 1336457815.793313 0003 0035 1860
E: 1336457815.793315 0003 003a 51
E: 1336457815.793328 0003 0000 1860
E: 1336457815.793330 0003 0018 51
E: 1336457815.793332 0000 0000 0
E: 1336457815.799678 0003 002f 1
E: 1336457815.799679 0003 003a 52
E: 1336457815.799688 0000 0000 0
E: 1336457815.806698 0003 002f 0
E: 1336457815.806698 0003 0035 1859
E: 1336457815.806701 0003 003a 50
E: 1336457815.806706 0003 002f 1
E: 1336457815.806706 0003 0035 1807
E: 1336457815.806708 0003 003a 51
E: 1336457815.806715 0003 0000 1859
E: 1336457815.806717 0003 0018 50
E: 1336457815.806718 0000 0000 0
E: 1336457815.813446 0003 002f 0
E: 1336457815.813447 0003 003a 48
E: 1336457815.813454 0003 002f 1
E: 1336457815.813454 0003 003a 48
E: 1336457815.813463 0003 0018 48
E: 1336457815.813464 0000 0000 0
E: 1336457815.820123 0003 002f 0
E: 1336457815.820123 0003 0035 1858
E: 1336457815.820126 0003 003a 54
E: 1336457815.820131 0003 002f 1
E: 1336457815.820131 0003 0035 1806
E: 1336457815.820132 0003 0036 989
E: 1336457815.820134 0003 003a 53
E: 1336457815.820140 0003 0000 1858
E: 1336457815.820142 0003 0018 54
E: 1336457815.820144 0000 0000 0
E: 1336457815.826852 0003 002f 0
E: 1336457815.826853 0003 0035 1857
E: 1336457815.826854 0003 0036 443
E: 1336457815.826856 0003 003a 48
E: 1336457815.826861 0003 002f 1
E: 1336457815.826861 0003 0035 1805
E: 1336457815.826863 0003 003a 50
E: 1336457815.826870 0003 0000 1857
E: 1336457815.826871 0003 0001 443
E: 1336457815.826873 0003 0018 48
E: 1336457815.826874 0000 0000 0
E: 1336457815.833581 0003 002f 0
E: 1336457815.833582 0003 0035 1856
E: 1336457815.833584 0003 003a 49
E: 1336457815.833589 0003 002f 1
E: 1336457815.833589 0003 0035 1804
E: 1336457815.833598 0003 0000 1856
E: 1336457815.833600 0003 0018 49
E: 1336457815.833602 0000 0000 0
E: 1336457815.840285 0003 002f 0
E: 1336457815.840285 0003 0035 1855
E: 1336457815.840287 0003 003a 48
E: 1336457815.840292 0003 002f 1
E: 1336457815.840293 0003 0035 1803
E: 1336457815.840295 0003 003a 52
E: 1336457815.840301 0003 0000 1855
E: 1336457815.840304 0003 0018 48
E: 1336457815.840305 0000 0000 0
E: 1336457815.846982 0003 002f 0
E: 1336457815.846982 0003 0035 1854
E: 1336457815.846985 0003 003a 51
E: 1336457815.846990 0003 002f 1
E: 1336457815.846990 0003 0035 1802
E: 1336457815.846991 0003 0036 988
E: 1336457815.846993 0003 003a 51
E: 1336457815.846999 0003 0000 1854
E: 1336457815.847001 0003 0018 51
E: 1336457815.847003 0000 0000 0
E: 1336457815.853694 0003 002f 0
E: 1336457815.853694 0003 0035 1852
E: 1336457815.853695 0003 0036 444
E: 1336457815.853697 0003 003a 52
E: 1336457815.853702 0003 002f 1
E: 1336457815.853702 0003 0035 1801
E: 1336457815.853704 0003 003a 52
E: 1336457815.853711 0003 0000 1852
E: 1336457815.853712 0003 0001 444
E: 1336457815.853713 0003 0018 52
E: 1336457815.853715 0000 0000 0
E: 1336457815.860401 0003 002f 0
E: 1336457815.860402 0003 0035 1850
E: 1336457815.860404 0003 003a 54
E: 1336457815.860409 0003 002f 1
E: 1336457815.860409 0003 0035 1799
E: 1336457815.860412 0003 003a 53
E: 1336457815.860418 0003 0000 1850
E: 1336457815.860420 0003 0018 54
E: 1336457815.860422 0000 0000 0
E: 1336457815.866979 0003 002f 0
E: 1336457815.866980 0003 0035 1847
E: 1336457815.866981 0003 0036 445
E: 1336457815.866983 0003 003a 50
E: 1336457815.866984 0003 0030 2
E: 1336457815.866988 0003 002f 1
E: 1336457815.866988 0003 0035 1796
E: 1336457815.866990 0003 0036 987
E: 1336457815.866991 0003 003a 52
E: 1336457815.866998 0003 0000 1847
E: 1336457815.866999 0003 0001 445
E: 1336457815.867000 0003 0018 50
E: 1336457815.867001 0000 0000 0
E: 1336457815.873552 0003 002f 0
E: 1336457815.873552 0003 0035 1844
E: 1336457815.873554 0003 003a 48
E: 1336457815.873559 0003 002f 1
E: 1336457815.873560 0003 0035 1793
E: 1336457815.873562 0003 003a 49
E: 1336457815.873568 0003 0000 1844
E: 1336457815.873571 0003 0018 48
E: 1336457815.873572 0000 0000 0
E: 1336457815.880113 0003 002f 0
E: 1336457815.880113 0003 0035 1838
E: 1336457815.880114 0003 0036 446
E: 1336457815.880116 0003 003a 50
E: 1336457815.880121 0003 002f 1
E: 1336457815.880121 0003 0035 1788
E: 1336457815.880124 0003 0030 2
E: 1336457815.880130 0003 0000 1838
E: 1336457815.880131 0003 0001 446
E: 1336457815.880132 0003 0018 50
E: 1336457815.880134 0000 0000 0
E: 1336457815.886637 0003 002f 0
E: 1336457815.886638 0003 0035 1831
E: 1336457815.886639 0003 0036 447
E: 1336457815.886642 0003 0030 3
E: 1336457815.886646 0003 002f 1
E: 1336457815.886646 0003 0035 1782
E: 1336457815.886648 0003 003a 54
E: 1336457815.886655 0003 0000 1831
E: 1336457815.886656 0003 0001 447
E: 1336457815.886659 0000 0000 0
E: 1336457815.893152 0003 002f 0
E: 1336457815.893152 0003 0035 1824
E: 1336457815.893155 0003 003a 47
E: 1336457815.893160 0003 002f 1
E: 1336457815.893160 0003 0035 1774
E: 1336457815.893162 0003 003a 50
E: 1336457815.893169 0003 0000 1824
E: 1336457815.893171 0003 0018 47
E: 1336457815.893172 0000 0000 0
E: 1336457815.899677 0003 002f 0
E: 1336457815.899677 0003 0035 1815
E: 1336457815.899679 0003 0036 449
E: 1336457815.899685 0003 002f 1
E: 1336457815.899685 0003 0035 1765
E: 1336457815.899687 0003 003a 53
E: 1336457815.899694 0003 0000 1815
E: 1336457815.899695 0003 0001 449
E: 1336457815.899697 0000 0000 0
E: 1336457815.906206 0003 002f 0
E: 1336457815.906207 0003 0035 1804
E: 1336457815.906208 0003 0036 450
E: 1336457815.906209 0003 003a 52
E: 1336457815.906211 0003 0030 4
E: 1336457815.906215 0003 002f 1
E: 1336457815.906215 0003 0035 1753
E: 1336457815.906216 0003 0036 986
E: 1336457815.906218 0003 003a 55
E: 1336457815.906224 0003 0000 1804
E: 1336457815.906225 0003 0001 450
E: 1336457815.906227 0003 0018 52
E: 1336457815.906228 0000 0000 0
E: 1336457815.912752 0003 002f 0
E: 1336457815.912752 0003 0035 1794
E: 1336457815.912754 0003 0036 451
E: 1336457815.912760 0003 002f 1
E: 1336457815.912760 0003 0035 1742
E: 1336457815.912761 0003 0036 987
E: 1336457815.912763 0003 003a 54
E: 1336457815.912769 0003 0000 1794
E: 1336457815.912771 0003 0001 451
E: 1336457815.912773 0000 0000 0
E: 1336457815.919291 0003 002f 0
E: 1336457815.919292 0003 0035 1780
E: 1336457815.919293 0003 0036 452
E: 1336457815.919294 0003 003a 47
E: 1336457815.919299 0003 002f 1
E: 1336457815.919300 0003 0035 1732
E: 1336457815.919302 0003 003a 50
E: 1336457815.919303 0003 0030 3
E: 1336457815.919309 0003 0000 1780
E: 1336457815.919310 0003 0001 452
E: 1336457815.919312 0003 0018 47
E: 1336457815.919313 0000 0000 0
E: 1336457815.925979 0003 002f 0
E: 1336457815.925979 0003 0035 1767
E: 1336457815.925981 0003 0036 453
E: 1336457815.925982 0003 003a 52
E: 1336457815.925987 0003 002f 1
E: 1336457815.925987 0003 0035 1721
E: 1336457815.925990 0003 003a 55
E: 1336457815.925996 0003 0000 1767
E: 1336457815.925997 0003 0001 453
E: 1336457815.925999 0003 0018 52
E: 1336457815.926000 0000 0000 0
E: 1336457815.932659 0003 002f 0
E: 1336457815.932660 0003 0035 1754
E: 1336457815.932661 0003 0036 454
E: 1336457815.932662 0003 003a 49
E: 1336457815.932663 0003 0030 3
E: 1336457815.932668 0003 002f 1
E: 1336457815.932668 0003 0035 1710
E: 1336457815.932670 0003 003a 51
E: 1336457815.932677 0003 0000 1754
E: 1336457815.932678 0003 0001 454
E: 1336457815.932679 0003 0018 49
E: 1336457815.932680 0000 0000 0
E: 1336457815.940198 0003 002f 0
E: 1336457815.940199 0003 0035 1742
E: 1336457815.940201 0003 003a 53
E: 1336457815.940206 0003 002f 1
E: 1336457815.940207 0003 0035 1698
E: 1336457815.940209 0003 003a 54
E: 1336457815.940216 0003 0000 1742
E: 1336457815.940218 0003 0018 53
E: 1336457815.940219 0000 0000 0
E: 1336457815.946770 0003 002f 0
E: 1336457815.946770 0003 0035 1728
E: 1336457815.946773 0003 003a 52
E: 1336457815.946774 0003 0030 2
E: 1336457815.946778 0003 002f 1
E: 1336457815.946778 0003 0035 1684
E: 1336457815.946781 0003 003a 53
E: 1336457815.946787 0003 0000 1728
E: 1336457815.946789 0003 0018 52
E: 1336457815.946791 0000 0000 0
E: 1336457815.953297 0003 002f 0
E: 1336457815.953297 0003 0035 1716
E: 1336457815.953299 0003 0036 455
E: 1336457815.953300 0003 003a 57
E: 1336457815.953301 0003 0030 3
E: 1336457815.953305 0003 002f 1
E: 1336457815.953306 0003 0035 1669
E: 1336457815.953307 0003 0036 986
E: 1336457815.953309 0003 0030 2
E: 1336457815.953315 0003 0000 1716
E: 1336457815.953316 0003 0001 455
E: 1336457815.953317 0003 0018 57
E: 1336457815.953319 0000 0000 0
E: 1336457815.959818 0003 002f 0
E: 1336457815.959818 0003 0035 1703
E: 1336457815.959821 0003 003a 56
E: 1336457815.959826 0003 002f 1
E: 1336457815.959826 0003 0035 1656
E: 1336457815.959828 0003 003a 59
E: 1336457815.959835 0003 0000 1703
E: 1336457815.959837 0003 0018 56
E: 1336457815.959838 0000 0000 0
E: 1336457815.966323 0003 002f 0
E: 1336457815.966324 0003 0035 1689
E: 1336457815.966326 0003 003a 54
E: 1336457815.966327 0003 0030 4
E: 1336457815.966332 0003 002f 1
E: 1336457815.966332 0003 0035 1639
E: 1336457815.966333 0003 0036 985
E: 1336457815.966334 0003 003a 56
E: 1336457815.966336 0003 0030 3
E: 1336457815.966341 0003 0000 1689
E: 1336457815.966344 0003 0018 54
E: 1336457815.966345 0000 0000 0
E: 1336457815.972866 0003 002f 0
E: 1336457815.972866 0003 0035 1674
E: 1336457815.972869 0003 003a 53
E: 1336457815.972874 0003 002f 1
E: 1336457815.972874 0003 0035 1626
E: 1336457815.972876 0003 003a 58
E: 1336457815.972883 0003 0000 1674
E: 1336457815.972885 0003 0018 53
E: 1336457815.972886 0000 0000 0
E: 1336457815.979422 0003 002f 0
E: 1336457815.979422 0003 0035 1657
E: 1336457815.979424 0003 003a 51
E: 1336457815.979429 0003 002f 1
E: 1336457815.979430 0003 0035 1609
E: 1336457815.979431 0003 0036 986
E: 1336457815.979432 0003 003a 55
E: 1336457815.979433 0003 0030 4
E: 1336457815.979439 0003 0000 1657
E: 1336457815.979441 0003 0018 51
E: 1336457815.979443 0000 0000 0
E: 1336457815.986114 0003 002f 0
E: 1336457815.986114 0003 0035 1640
E: 1336457815.986117 0003 003a 52
E: 1336457815.986122 0003 002f 1
E: 1336457815.986122 0003 0035 1591
E: 1336457815.986125 0003 0030 3
E: 1336457815.986131 0003 0000 1640
E: 1336457815.986133 0003 0018 52
E: 1336457815.986135 0000 0000 0
E: 1336457815.992764 0003 002f 0
E: 1336457815.992764 0003 0035 1623
E: 1336457815.992766 0003 003a 54
E: 1336457815.992767 0003 0030 3
E: 1336457815.992772 0003 002f 1
E: 1336457815.992772 0003 0035 1576
E: 1336457815.992773 0003 0036 987
E: 1336457815.992774 0003 003a 54
E: 1336457815.992781 0003 0000 1623
E: 1336457815.992783 0003 0018 54
E: 1336457815.992784 0000 0000 0
E: 1336457815.999307 0003 002f 0
E: 1336457815.999307 0003 0035 1600
E: 1336457815.999309 0003 0036 456
E: 1336457815.999315 0003 002f 1
E: 1336457815.999315 0003 0035 1559
E: 1336457815.999316 0003 0036 986
E: 1336457815.999318 0003 003a 57
E: 1336457815.999324 0003 0000 1600
E: 1336457815.999326 0003 0001 456
E: 1336457815.999328 0000 0000 0
E: 1336457816.005865 0003 002f 0
E: 1336457816.005866 0003 0035 1584
E: 1336457816.005869 0003 003a 51
E: 1336457816.005874 0003 002f 1
E: 1336457816.005875 0003 0035 1537
E: 1336457816.005876 0003 0036 987
E: 1336457816.005877 0003 003a 52
E: 1336457816.005878 0003 0030 2
E: 1336457816.005885 0003 0000 1584
E: 1336457816.005887 0003 0018 51
E: 1336457816.005889 0000 0000 0
E: 1336457816.012250 0003 002f 0
E: 1336457816.012251 0003 0035 1568
E: 1336457816.012252 0003 0036 457
E: 1336457816.012253 0003 003a 54
E: 1336457816.012254 0003 0030 4
E: 1336457816.012259 0003 002f 1
E: 1336457816.012259 0003 0035 1516
E: 1336457816.012261 0003 003a 57
E: 1336457816.012263 0003 0030 4
E: 1336457816.012268 0003 0000 1568
E: 1336457816.012270 0003 0001 457
E: 1336457816.012271 0003 0018 54
E: 1336457816.012272 0000 0000 0
E: 1336457816.018763 0003 002f 0
E: 1336457816.018763 0003 0035 1551
E: 1336457816.018765 0003 003a 51
E: 1336457816.018771 0003 002f 1
E: 1336457816.018771 0003 0035 1502
E: 1336457816.018772 0003 0036 986
E: 1336457816.018773 0003 003a 55
E: 1336457816.018775 0003 0030 3
E: 1336457816.018780 0003 0000 1551
E: 1336457816.018783 0003 0018 51
E: 1336457816.018784 0000 0000 0
E: 1336457816.025317 0003 002f 0
E: 1336457816.025317 0003 0035 1529
E: 1336457816.025319 0003 003a 52
E: 1336457816.025324 0003 002f 1
E: 1336457816.025325 0003 0035 1485
E: 1336457816.025327 0003 003a 56
E: 1336457816.025328 0003 0030 4
E: 1336457816.025334 0003 0000 1529
E: 1336457816.025336 0003 0018 52
E: 1336457816.025337 0000 0000 0
E: 1336457816.032001 0003 002f 0
E: 1336457816.032002 0003 0035 1508
E: 1336457816.032003 0003 0036 456
E: 1336457816.032004 0003 003a 56
E: 1336457816.032009 0003 002f 1
E: 1336457816.032010 0003 0035 1462
E: 1336457816.032012 0003 003a 60
E: 1336457816.032013 0003 0030 3
E: 1336457816.032019 0003 0000 1508
E: 1336457816.032020 0003 0001 456
E: 1336457816.032021 0003 0018 56
E: 1336457816.032022 0000 0000 0
E: 1336457816.038673 0003 002f 0
E: 1336457816.038673 0003 0035 1493
E: 1336457816.038676 0003 003a 57
E: 1336457816.038677 0003 0030 3
E: 1336457816.038681 0003 002f 1
E: 1336457816.038681 0003 0035 1447
E: 1336457816.038684 0003 003a 58
E: 1336457816.038690 0003 0000 1493
E: 1336457816.038693 0003 0018 57
E: 1336457816.038694 0000 0000 0
E: 1336457816.045215 0003 002f 0
E: 1336457816.045215 0003 0035 1470
E: 1336457816.045216 0003 0036 455
E: 1336457816.045218 0003 003a 56
E: 1336457816.045223 0003 002f 1
E: 1336457816.045223 0003 0035 1431
E: 1336457816.045224 0003 0036 985
E: 1336457816.045226 0003 003a 57
E: 1336457816.045232 0003 0000 1470
E: 1336457816.045234 0003 0001 455
E: 1336457816.045235 0003 0018 56
E: 1336457816.045236 0000 0000 0
E: 1336457816.051703 0003 002f 0
E: 1336457816.051703 0003 0035 1451
E: 1336457816.051704 0003 0036 457
E: 1336457816.051704 0003 003a 55
E: 1336457816.051705 0003 002f 1
E: 1336457816.051706 0003 0035 1409
E: 1336457816.051706 0003 0036 984
E: 1336457816.051707 0003 003a 56
E: 1336457816.051707 0003 0030 2
E: 1336457816.051709 0003 0000 1451
E: 1336457816.051709 0003 0001 457
E: 1336457816.051710 0003 0018 55
E: 1336457816.051711 0000 0000 0
E: 1336457816.058243 0003 002f 0
E: 1336457816.058244 0003 0035 1430
E: 1336457816.058244 0003 0036 456
E: 1336457816.058245 0003 003a 52
E: 1336457816.058245 0003 0030 4
E: 1336457816.058246 0003 002f 1
E: 1336457816.058247 0003 0035 1388
E: 1336457816.058247 0003 003a 57
E: 1336457816.058248 0003 0030 3
E: 1336457816.058249 0003 0000 1430
E: 1336457816.058250 0003 0001 456
E: 1336457816.058250 0003 0018 52
E: 1336457816.058251 0000 0000 0
E: 1336457816.064726 0003 002f 0
E: 1336457816.064727 0003 0035 1409
E: 1336457816.064727 0003 0036 455
E: 1336457816.064728 0003 003a 53
E: 1336457816.064729 0003 002f 1
E: 1336457816.064729 0003 0035 1366
E: 1336457816.064730 0003 0036 983
E: 1336457816.064730 0003 003a 58
E: 1336457816.064731 0003 0030 5
E: 1336457816.064732 0003 0000 1409
E: 1336457816.064733 0003 0001 455
E: 1336457816.064733 0003 0018 53
E: 1336457816.064734 0000 0000 0
E: 1336457816.071392 0003 002f 0
E: 1336457816.071393 0003 0035 1387
E: 1336457816.071394 0003 003a 54
E: 1336457816.071395 0003 002f 1
E: 1336457816.071395 0003 0035 1346
E: 1336457816.071396 0003 0036 982
E: 1336457816.071396 0003 003a 59
E: 1336457816.071397 0003 0030 3
E: 1336457816.071398 0003 0000 1387
E: 1336457816.071399 0003 0018 54
E: 1336457816.071399 0000 0000 0
E: 1336457816.078053 0003 002f 0
E: 1336457816.078053 0003 0035 1373
E: 1336457816.078054 0003 0036 454
E: 1336457816.078054 0003 003a 52
E: 1336457816.078055 0003 0030 3
E: 1336457816.078056 0003 002f 1
E: 1336457816.078056 0003 0035 1332
E: 1336457816.078057 0003 0036 981
E: 1336457816.078057 0003 003a 56
E: 1336457816.078059 0003 0000 1373
E: 1336457816.078059 0003 0001 454
E: 1336457816.078060 0003 0018 52
E: 1336457816.078060 0000 0000 0
E: 1336457816.084576 0003 002f 0
E: 1336457816.084576 0003 0035 1351
E: 1336457816.084577 0003 0036 453
E: 1336457816.084577 0003 003a 54
E: 1336457816.084578 0003 002f 1
E: 1336457816.084579 0003 0035 1314
E: 1336457816.084579 0003 003a 55
E: 1336457816.084581 0003 0000 1351
E: 1336457816.084582 0003 0001 453
E: 1336457816.084582 0003 0018 54
E: 1336457816.084583 0000 0000 0
E: 1336457816.091106 0003 002f 0
E: 1336457816.091106 0003 0035 1330
E: 1336457816.091107 0003 003a 50
E: 1336457816.091107 0003 0030 4
E: 1336457816.091108 0003 002f 1
E: 1336457816.091109 0003 0035 1292
E: 1336457816.091109 0003 003a 57
E: 1336457816.091111 0003 0000 1330
E: 1336457816.091112 0003 0018 50
E: 1336457816.091112 0000 0000 0
E: 1336457816.097634 0003 002f 0
E: 1336457816.097635 0003 0035 1308
E: 1336457816.097635 0003 0036 452
E: 1336457816.097636 0003 003a 54
E: 1336457816.097637 0003 002f 1
E: 1336457816.097637 0003 0035 1270
E: 1336457816.097638 0003 0036 980
E: 1336457816.097638 0003 003a 61
E: 1336457816.097640 0003 0000 1308
E: 1336457816.097640 0003 0001 452
E: 1336457816.097641 0003 0018 54
E: 1336457816.097641 0000 0000 0
E: 1336457816.104163 0003 002f 0
E: 1336457816.104163 0003 0035 1289
E: 1336457816.104163 0003 0036 451
E: 1336457816.104164 0003 003a 53
E: 1336457816.104165 0003 002f 1
E: 1336457816.104165 0003 0035 1255
E: 1336457816.104166 0003 0036 979
E: 1336457816.104166 0003 003a 59
E: 1336457816.104167 0003 0030 4
E: 1336457816.104168 0003 0000 1289
E: 1336457816.104169 0003 0001 451
E: 1336457816.104169 0003 0018 53
E: 1336457816.104170 0000 0000 0
E: 1336457816.110838 0003 002f 0
E: 1336457816.110839 0003 0035 1267
E: 1336457816.110840 0003 003a 54
E: 1336457816.110841 0003 002f 1
E: 1336457816.110841 0003 0035 1233
E: 1336457816.110842 0003 0036 980
E: 1336457816.110842 0003 003a 60
E: 1336457816.110843 0003 0030 3
E: 1336457816.110844 0003 0000 1267
E: 1336457816.110845 0003 0018 54
E: 1336457816.110846 0000 0000 0
E: 1336457816.117346 0003 002f 0
E: 1336457816.117346 0003 0035 1245
E: 1336457816.117347 0003 0030 3
E: 1336457816.117348 0003 002f 1
E: 1336457816.117348 0003 0035 1211
E: 1336457816.117349 0003 0036 981
E: 1336457816.117349 0003 003a 59
E: 1336457816.117351 0003 0000 1245
E: 1336457816.117352 0000 0000 0
E: 1336457816.123864 0003 002f 0
E: 1336457816.123864 0003 0035 1224
E: 1336457816.123865 0003 003a 53
E: 1336457816.123866 0003 002f 1
E: 1336457816.123866 0003 0035 1190
E: 1336457816.123867 0003 0036 980
E: 1336457816.123867 0003 003a 57
E: 1336457816.123869 0003 0000 1224
E: 1336457816.123870 0003 0018 53
E: 1336457816.123870 0000 0000 0
E: 1336457816.130398 0003 002f 0
E: 1336457816.130398 0003 0035 1205
E: 1336457816.130399 0003 0036 449
E: 1336457816.130399 0003 003a 55
E: 1336457816.130400 0003 0030 4
E: 1336457816.130401 0003 002f 1
E: 1336457816.130401 0003 0035 1169
E: 1336457816.130402 0003 0036 981
E: 1336457816.130402 0003 003a 59
E: 1336457816.130404 0003 0000 1205
E: 1336457816.130404 0003 0001 449
E: 1336457816.130405 0003 0018 55
E: 1336457816.130405 0000 0000 0
E: 1336457816.137824 0003 002f 0
E: 1336457816.137825 0003 0035 1191
E: 1336457816.137825 0003 0036 450
E: 1336457816.137825 0003 003a 52
E: 1336457816.137827 0003 002f 1
E: 1336457816.137827 0003 0035 1154
E: 1336457816.137827 0003 0036 980
E: 1336457816.137828 0003 003a 56
E: 1336457816.137830 0003 0000 1191
E: 1336457816.137830 0003 0001 450
E: 1336457816.137831 0003 0018 52
E: 1336457816.137831 0000 0000 0
E: 1336457816.144383 0003 002f 0
E: 1336457816.144383 0003 0035 1167
E: 1336457816.144384 0003 003a 55
E: 1336457816.144385 0003 002f 1
E: 1336457816.144386 0003 0035 1130
E: 1336457816.144386 0003 003a 59
E: 1336457816.144387 0003 0030 4
E: 1336457816.144388 0003 0000 1167
E: 1336457816.144389 0003 0018 55
E: 1336457816.144389 0000 0000 0
E: 1336457816.151043 0003 002f 0
E: 1336457816.151043 0003 0035 1144
E: 1336457816.151043 0003 0036 449
E: 1336457816.151044 0003 003a 56
E: 1336457816.151045 0003 002f 1
E: 1336457816.151045 0003 0035 1109
E: 1336457816.151046 0003 0036 979
E: 1336457816.151046 0003 003a 60
E: 1336457816.151047 0003 0030 3
E: 1336457816.151049 0003 0000 1144
E: 1336457816.151049 0003 0001 449
E: 1336457816.151049 0003 0018 56
E: 1336457816.151050 0000 0000 0
E: 1336457816.157557 0003 002f 0
E: 1336457816.157557 0003 0035 1122
E: 1336457816.157558 0003 0036 448
E: 1336457816.157558 0003 0030 3
E: 1336457816.157559 0003 002f 1
E: 1336457816.157560 0003 0035 1087
E: 1336457816.157560 0003 0036 980
E: 1336457816.157562 0003 0000 1122
E: 1336457816.157563 0003 0001 448
E: 1336457816.157563 0000 0000 0
E: 1336457816.164085 0003 002f 0
E: 1336457816.164086 0003 0035 1102
E: 1336457816.164086 0003 0036 449
E: 1336457816.164087 0003 003a 57
E: 1336457816.164087 0003 0030 4
E: 1336457816.164088 0003 002f 1
E: 1336457816.164089 0003 0035 1067
E: 1336457816.164089 0003 0036 981
E: 1336457816.164089 0003 003a 59
E: 1336457816.164091 0003 0000 1102
E: 1336457816.164092 0003 0001 449
E: 1336457816.164092 0003 0018 57
E: 1336457816.164093 0000 0000 0
E: 1336457816.170583 0003 002f 0
E: 1336457816.170584 0003 0035 1081
E: 1336457816.170584 0003 0036 448
E: 1336457816.170585 0003 003a 56
E: 1336457816.170586 0003 002f 1
E: 1336457816.170586 0003 0035 1046
E: 1336457816.170588 0003 0000 1081
E: 1336457816.170589 0003 0001 448
E: 1336457816.170589 0003 0018 56
E: 1336457816.170590 0000 0000 0
E: 1336457816.177092 0003 002f 0
E: 1336457816.177092 0003 0035 1061
E: 1336457816.177093 0003 003a 54
E: 1336457816.177094 0003 002f 1
E: 1336457816.177095 0003 0035 1032
E: 1336457816.177095 0003 003a 58
E: 1336457816.177097 0003 0000 1061
E: 1336457816.177098 0003 0018 54
E: 1336457816.177098 0000 0000 0
E: 1336457816.183630 0003 002f 0
E: 1336457816.183630 0003 0035 1039
E: 1336457816.183631 0003 0036 447
E: 1336457816.183631 0003 003a 53
E: 1336457816.183632 0003 002f 1
E: 1336457816.183633 0003 0035 1014
E: 1336457816.183634 0003 0030 4
E: 1336457816.183635 0003 0000 1039
E: 1336457816.183636 0003 0001 447
E: 1336457816.183636 0003 0018 53
E: 1336457816.183637 0000 0000 0
E: 1336457816.190285 0003 002f 0
E: 1336457816.190286 0003 0035 1019
E: 1336457816.190286 0003 0036 448
E: 1336457816.190287 0003 003a 55
E: 1336457816.190287 0003 0030 3
E: 1336457816.190288 0003 002f 1
E: 1336457816.190289 0003 0035 992
E: 1336457816.190290 0003 0030 3
E: 1336457816.190291 0003 0000 1019
E: 1336457816.190292 0003 0001 448
E: 1336457816.190292 0003 0018 55
E: 1336457816.190293 0000 0000 0
E: 1336457816.196779 0003 002f 0
E: 1336457816.196780 0003 0035 1003
E: 1336457816.196780 0003 003a 57
E: 1336457816.196782 0003 002f 1
E: 1336457816.196782 0003 0035 971
E: 1336457816.196782 0003 0036 980
E: 1336457816.196783 0003 003a 59
E: 1336457816.196785 0003 0000 1003
E: 1336457816.196785 0003 0018 57
E: 1336457816.196786 0000 0000 0
E: 1336457816.203299 0003 002f 0
E: 1336457816.203299 0003 0035 987
E: 1336457816.203299 0003 0036 449
E: 1336457816.203300 0003 003a 55
E: 1336457816.203301 0003 002f 1
E: 1336457816.203301 0003 0035 951
E: 1336457816.203302 0003 0036 979
E: 1336457816.203302 0003 003a 60
E: 1336457816.203304 0003 0000 987
E: 1336457816.203305 0003 0001 449
E: 1336457816.203305 0003 0018 55
E: 1336457816.203306 0000 0000 0
E: 1336457816.209817 0003 002f 0
E: 1336457816.209818 0003 0035 970
E: 1336457816.209818 0003 003a 52
E: 1336457816.209819 0003 0030 4
E: 1336457816.209820 0003 002f 1
E: 1336457816.209820 0003 0035 935
E: 1336457816.209821 0003 0036 980
E: 1336457816.209821 0003 003a 57
E: 1336457816.209822 0003 0030 4
E: 1336457816.209823 0003 0000 970
E: 1336457816.209824 0003 0018 52
E: 1336457816.209824 0000 0000 0
E: 1336457816.216349 0003 002f 0
E: 1336457816.216350 0003 0035 949
E: 1336457816.216350 0003 0036 450
E: 1336457816.216351 0003 003a 53
E: 1336457816.216352 0003 002f 1
E: 1336457816.216352 0003 0035 919
E: 1336457816.216353 0003 003a 59
E: 1336457816.216353 0003 0030 3
E: 1336457816.216355 0003 0000 949
E: 1336457816.216356 0003 0001 450
E: 1336457816.216356 0003 0018 53
E: 1336457816.216357 0000 0000 0
E: 1336457816.222849 0003 002f 0
E: 1336457816.222850 0003 0035 927
E: 1336457816.222850 0003 0036 449
E: 1336457816.222851 0003 003a 54
E: 1336457816.222852 0003 002f 1
E: 1336457816.222852 0003 0035 898
E: 1336457816.222853 0003 0036 978
E: 1336457816.222855 0003 0000 927
E: 1336457816.222855 0003 0001 449
E: 1336457816.222856 0003 0018 54
E: 1336457816.222856 0000 0000 0
E: 1336457816.229385 0003 002f 0
E: 1336457816.229386 0003 0035 907
E: 1336457816.229386 0003 0036 448
E: 1336457816.229387 0003 003a 56
E: 1336457816.229388 0003 002f 1
E: 1336457816.229388 0003 0035 876
E: 1336457816.229389 0003 003a 62
E: 1336457816.229389 0003 0030 4
E: 1336457816.229391 0003 0000 907
E: 1336457816.229391 0003 0001 448
E: 1336457816.229392 0003 0018 56
E: 1336457816.229392 0000 0000 0
E: 1336457816.235965 0003 002f 0
E: 1336457816.235966 0003 0035 886
E: 1336457816.235966 0003 0036 447
E: 1336457816.235967 0003 003a 53
E: 1336457816.235967 0003 0030 2
E: 1336457816.235969 0003 002f 1
E: 1336457816.235969 0003 0035 857
E: 1336457816.235987 0003 0036 976
E: 1336457816.235988 0003 003a 59
E: 1336457816.235988 0003 0030 3
E: 1336457816.235991 0003 0000 886
E: 1336457816.235991 0003 0001 447
E: 1336457816.235992 0003 0018 53
E: 1336457816.235992 0000 0000 0
E: 1336457816.242400 0003 002f 0
E: 1336457816.242401 0003 0035 870
E: 1336457816.242402 0003 003a 56
E: 1336457816.242402 0003 0030 3
E: 1336457816.242403 0003 002f 1
E: 1336457816.242403 0003 0035 842
E: 1336457816.242404 0003 0036 974
E: 1336457816.242404 0003 003a 60
E: 1336457816.242407 0003 0000 870
E: 1336457816.242407 0003 0018 56
E: 1336457816.242408 0000 0000 0
E: 1336457816.248897 0003 002f 0
E: 1336457816.248897 0003 0035 856
E: 1336457816.248898 0003 0030 4
E: 1336457816.248899 0003 002f 1
E: 1336457816.248900 0003 0035 828
E: 1336457816.248900 0003 0036 973
E: 1336457816.248901 0003 003a 59
E: 1336457816.248901 0003 0030 4
E: 1336457816.248903 0003 0000 856
E: 1336457816.248904 0000 0000 0
E: 1336457816.255418 0003 002f 0
E: 1336457816.255418 0003 0035 841
E: 1336457816.255419 0003 0036 446
E: 1336457816.255419 0003 003a 51
E: 1336457816.255421 0003 002f 1
E: 1336457816.255421 0003 0035 813
E: 1336457816.255422 0003 003a 58
E: 1336457816.255424 0003 0000 841
E: 1336457816.255424 0003 0001 446
E: 1336457816.255425 0003 0018 51
E: 1336457816.255425 0000 0000 0
E: 1336457816.261941 0003 002f 0
E: 1336457816.261941 0003 0035 823
E: 1336457816.261942 0003 003a 57
E: 1336457816.261943 0003 002f 1
E: 1336457816.261944 0003 0035 797
E: 1336457816.261944 0003 0036 972
E: 1336457816.261945 0003 003a 60
E: 1336457816.261947 0003 0000 823
E: 1336457816.261947 0003 0018 57
E: 1336457816.261948 0000 0000 0
E: 1336457816.268429 0003 002f 0
E: 1336457816.268429 0003 0035 806
E: 1336457816.268429 0003 0036 445
E: 1336457816.268430 0003 003a 55
E: 1336457816.268431 0003 002f 1
E: 1336457816.268431 0003 0035 782
E: 1336457816.268432 0003 0036 971
E: 1336457816.268432 0003 003a 61
E: 1336457816.268433 0003 0030 3
E: 1336457816.268435 0003 0000 806
E: 1336457816.268435 0003 0001 445
E: 1336457816.268436 0003 0018 55
E: 1336457816.268436 0000 0000 0
E: 1336457816.274959 0003 002f 0
E: 1336457816.274960 0003 0035 784
E: 1336457816.274960 0003 003a 54
E: 1336457816.274961 0003 002f 1
E: 1336457816.274962 0003 0035 765
E: 1336457816.274962 0003 0036 970
E: 1336457816.274963 0003 003a 62
E: 1336457816.274963 0003 0030 4
E: 1336457816.274965 0003 0000 784
E: 1336457816.274966 0003 0018 54
E: 1336457816.274966 0000 0000 0
E: 1336457816.281480 0003 002f 0
E: 1336457816.281480 0003 0035 769
E: 1336457816.281481 0003 003a 52
E: 1336457816.281481 0003 0030 2
E: 1336457816.281482 0003 002f 1
E: 1336457816.281483 0003 0035 750
E: 1336457816.281483 0003 003a 57
E: 1336457816.281484 0003 0030 3
E: 1336457816.281485 0003 0000 769
E: 1336457816.281486 0003 0018 52
E: 1336457816.281487 0000 0000 0
E: 1336457816.288004 0003 002f 0
E: 1336457816.288004 0003 0035 753
E: 1336457816.288005 0003 0036 444
E: 1336457816.288005 0003 003a 57
E: 1336457816.288006 0003 0030 3
E: 1336457816.288007 0003 002f 1
E: 1336457816.288007 0003 0035 734
E: 1336457816.288008 0003 0036 969
E: 1336457816.288008 0003 003a 63
E: 1336457816.288010 0003 0000 753
E: 1336457816.288010 0003 0001 444
E: 1336457816.288011 0003 0018 57
E: 1336457816.288011 0000 0000 0
E: 1336457816.294487 0003 002f 0
E: 1336457816.294487 0003 0035 736
E: 1336457816.294488 0003 003a 53
E: 1336457816.294488 0003 0030 4
E: 1336457816.294489 0003 002f 1
E: 1336457816.294490 0003 0035 718
E: 1336457816.294490 0003 0036 968
E: 1336457816.294491 0003 003a 57
E: 1336457816.294491 0003 0030 4
E: 1336457816.294493 0003 0000 736
E: 1336457816.294493 0003 0018 53
E: 1336457816.294494 0000 0000 0
E: 1336457816.300983 0003 002f 0
E: 1336457816.300983 0003 0035 720
E: 1336457816.300984 0003 0036 443
E: 1336457816.300984 0003 003a 54
E: 1336457816.300986 0003 002f 1
E: 1336457816.300986 0003 0035 701
E: 1336457816.300986 0003 0036 967
E: 1336457816.300987 0003 003a 56
E: 1336457816.300989 0003 0000 720
E: 1336457816.300989 0003 0001 443
E: 1336457816.300990 0003 0018 54
E: 1336457816.300990 0000 0000 0
E: 1336457816.307476 0003 002f 0
E: 1336457816.307476 0003 0035 704
E: 1336457816.307477 0003 0036 442
E: 1336457816.307477 0003 003a 57
E: 1336457816.307478 0003 002f 1
E: 1336457816.307479 0003 0035 685
E: 1336457816.307479 0003 0036 966
E: 1336457816.307480 0003 003a 61
E: 1336457816.307481 0003 0000 704
E: 1336457816.307482 0003 0001 442
E: 1336457816.307482 0003 0018 57
E: 1336457816.307483 0000 0000 0
E: 1336457816.313995 0003 002f 0
E: 1336457816.313996 0003 0035 689
E: 1336457816.313996 0003 0036 441
E: 1336457816.313997 0003 003a 54
E: 1336457816.313998 0003 002f 1
E: 1336457816.313998 0003 0035 671
E: 1336457816.314000 0003 0000 689
E: 1336457816.314001 0003 0001 441
E: 1336457816.314001 0003 0018 54
E: 1336457816.314002 0000 0000 0
E: 1336457816.320510 0003 002f 0
E: 1336457816.320510 0003 0035 672
E: 1336457816.320511 0003 0036 440
E: 1336457816.320511 0003 003a 55
E: 1336457816.320512 0003 002f 1
E: 1336457816.320513 0003 0035 655
E: 1336457816.320513 0003 0036 965
E: 1336457816.320515 0003 0000 672
E: 1336457816.320516 0003 0001 440
E: 1336457816.320516 0003 0018 55
E: 1336457816.320517 0000 0000 0
E: 1336457816.327126 0003 002f 0
E: 1336457816.327127 0003 0035 657
E: 1336457816.327128 0003 0030 3
E: 1336457816.327129 0003 002f 1
E: 1336457816.327129 0003 0035 639
E: 1336457816.327130 0003 0036 963
E: 1336457816.327130 0003 003a 58
E: 1336457816.327131 0003 0030 3
E: 1336457816.327132 0003 0000 657
E: 1336457816.327133 0000 0000 0
E: 1336457816.334456 0003 002f 0
E: 1336457816.334457 0003 0035 640
E: 1336457816.334457 0003 0036 439
E: 1336457816.334458 0003 003a 54
E: 1336457816.334459 0003 002f 1
E: 1336457816.334459 0003 0035 623
E: 1336457816.334460 0003 0036 962
E: 1336457816.334460 0003 003a 61
E: 1336457816.334462 0003 0000 640
E: 1336457816.334462 0003 0001 439
E: 1336457816.334463 0003 0018 54
E: 1336457816.334463 0000 0000 0
E: 1336457816.340983 0003 002f 0
E: 1336457816.340984 0003 0035 619
E: 1336457816.340984 0003 0036 437
E: 1336457816.340985 0003 0030 4
E: 1336457816.340986 0003 002f 1
E: 1336457816.340987 0003 0035 602
E: 1336457816.340987 0003 0036 961
E: 1336457816.340988 0003 003a 57
E: 1336457816.340989 0003 0000 619
E: 1336457816.340990 0003 0001 437
E: 1336457816.340991 0000 0000 0
E: 1336457816.347487 0003 002f 0
E: 1336457816.347487 0003 0035 600
E: 1336457816.347487 0003 0036 435
E: 1336457816.347488 0003 003a 53
E: 1336457816.347489 0003 002f 1
E: 1336457816.347489 0003 0035 587
E: 1336457816.347490 0003 0036 959
E: 1336457816.347490 0003 003a 55
E: 1336457816.347491 0003 0030 4
E: 1336457816.347492 0003 0000 600
E: 1336457816.347493 0003 0001 435
E: 1336457816.347493 0003 0018 53
E: 1336457816.347494 0000 0000 0
E: 1336457816.354002 0003 002f 0
E: 1336457816.354002 0003 0035 581
E: 1336457816.354002 0003 0036 432
E: 1336457816.354003 0003 003a 52
E: 1336457816.354004 0003 002f 1
E: 1336457816.354004 0003 0035 567
E: 1336457816.354005 0003 0036 958
E: 1336457816.354005 0003 003a 63
E: 1336457816.354007 0003 0000 581
E: 1336457816.354008 0003 0001 432
E: 1336457816.354008 0003 0018 52
E: 1336457816.354009 0000 0000 0
E: 1336457816.360496 0003 002f 0
E: 1336457816.360497 0003 0035 568
E: 1336457816.360497 0003 0036 430
E: 1336457816.360498 0003 003a 56
E: 1336457816.360499 0003 002f 1
E: 1336457816.360499 0003 0035 555
E: 1336457816.360500 0003 0036 956
E: 1336457816.360502 0003 0000 568
E: 1336457816.360502 0003 0001 430
E: 1336457816.360503 0003 0018 56
E: 1336457816.360503 0000 0000 0
E: 1336457816.367015 0003 002f 0
E: 1336457816.367016 0003 0035 553
E: 1336457816.367017 0003 003a 55
E: 1336457816.367018 0003 002f 1
E: 1336457816.367018 0003 0035 540
E: 1336457816.367019 0003 0036 955
E: 1336457816.367021 0003 0000 553
E: 1336457816.367022 0003 0018 55
E: 1336457816.367022 0000 0000 0
E: 1336457816.373521 0003 002f 0
E: 1336457816.373522 0003 0035 541
E: 1336457816.373522 0003 0036 429
E: 1336457816.373524 0003 002f 1
E: 1336457816.373524 0003 0035 524
E: 1336457816.373525 0003 0036 954
E: 1336457816.373527 0003 0000 541
E: 1336457816.373527 0003 0001 429
E: 1336457816.373528 0000 0000 0
E: 1336457816.380036 0003 002f 0
E: 1336457816.380037 0003 0035 525
E: 1336457816.380037 0003 0036 427
E: 1336457816.380038 0003 003a 56
E: 1336457816.380038 0003 0030 2
E: 1336457816.380039 0003 002f 1
E: 1336457816.380039 0003 0035 509
E: 1336457816.380040 0003 0036 952
E: 1336457816.380041 0003 0030 3
E: 1336457816.380042 0003 0000 525
E: 1336457816.380043 0003 0001 427
E: 1336457816.380043 0003 0018 56
E: 1336457816.380044 0000 0000 0
E: 1336457816.386529 0003 002f 0
E: 1336457816.386529 0003 0035 511
E: 1336457816.386530 0003 0036 426
E: 1336457816.386530 0003 0030 4
E: 1336457816.386531 0003 002f 1
E: 1336457816.386532 0003 0035 497
E: 1336457816.386532 0003 003a 62
E: 1336457816.386534 0003 0000 511
E: 1336457816.386535 0003 0001 426
E: 1336457816.386535 0000 0000 0
E: 1336457816.393045 0003 002f 0
E: 1336457816.393045 0003 0035 499
E: 1336457816.393046 0003 0036 425
E: 1336457816.393046 0003 003a 58
E: 1336457816.393047 0003 002f 1
E: 1336457816.393048 0003 0035 484
E: 1336457816.393048 0003 0036 950
E: 1336457816.393049 0003 0030 4
E: 1336457816.393051 0003 0000 499
E: 1336457816.393051 0003 0001 425
E: 1336457816.393052 0003 0018 58
E: 1336457816.393052 0000 0000 0
E: 1336457816.399537 0003 002f 0
E: 1336457816.399537 0003 0035 483
E: 1336457816.399538 0003 0036 424
E: 1336457816.399539 0003 002f 1
E: 1336457816.399539 0003 0035 471
E: 1336457816.399540 0003 003a 60
E: 1336457816.399542 0003 0000 483
E: 1336457816.399542 0003 0001 424
E: 1336457816.399543 0000 0000 0
E: 1336457816.406043 0003 002f 0
E: 1336457816.406044 0003 0035 471
E: 1336457816.406044 0003 0036 423
E: 1336457816.406046 0003 002f 1
E: 1336457816.406046 0003 0035 458
E: 1336457816.406046 0003 0036 949
E: 1336457816.406047 0003 003a 62
E: 1336457816.406049 0003 0000 471
E: 1336457816.406049 0003 0001 423
E: 1336457816.406050 0000 0000 0
E: 1336457816.412544 0003 002f 0
E: 1336457816.412545 0003 0035 455
E: 1336457816.412545 0003 0036 422
E: 1336457816.412546 0003 002f 1
E: 1336457816.412547 0003 0035 445
E: 1336457816.412547 0003 0036 948
E: 1336457816.412548 0003 003a 63
E: 1336457816.412550 0003 0000 455
E: 1336457816.412550 0003 0001 422
E: 1336457816.412551 0000 0000 0
E: 1336457816.419065 0003 002f 0
E: 1336457816.419065 0003 0035 444
E: 1336457816.419066 0003 0036 421
E: 1336457816.419066 0003 003a 56
E: 1336457816.419067 0003 002f 1
E: 1336457816.419068 0003 0035 434
E: 1336457816.419068 0003 0036 947
E: 1336457816.419069 0003 003a 59
E: 1336457816.419071 0003 0000 444
E: 1336457816.419071 0003 0001 421
E: 1336457816.419071 0003 0018 56
E: 1336457816.419072 0000 0000 0
E: 1336457816.425574 0003 002f 0
E: 1336457816.425574 0003 0035 434
E: 1336457816.425575 0003 003a 59
E: 1336457816.425576 0003 002f 1
E: 1336457816.425576 0003 0035 421
E: 1336457816.425577 0003 0036 946
E: 1336457816.425577 0003 003a 64
E: 1336457816.425578 0003 0030 5
E: 1336457816.425579 0003 0000 434
E: 1336457816.425580 0003 0018 59
E: 1336457816.425581 0000 0000 0
E: 1336457816.432109 0003 002f 0
E: 1336457816.432109 0003 0035 424
E: 1336457816.432110 0003 003a 62
E: 1336457816.432111 0003 002f 1
E: 1336457816.432111 0003 0035 409
E: 1336457816.432112 0003 0036 945
E: 1336457816.432112 0003 003a 66
E: 1336457816.432114 0003 0000 424
E: 1336457816.432115 0003 0018 62
E: 1336457816.432115 0000 0000 0
E: 1336457816.438635 0003 002f 0
E: 1336457816.438635 0003 0035 408
E: 1336457816.438636 0003 0036 422
E: 1336457816.438636 0003 003a 58
E: 1336457816.438637 0003 0030 2
E: 1336457816.438638 0003 002f 1
E: 1336457816.438638 0003 0035 395
E: 1336457816.438639 0003 003a 62
E: 1336457816.438639 0003 0030 3
E: 1336457816.438641 0003 0000 408
E: 1336457816.438642 0003 0001 422
E: 1336457816.438642 0003 0018 58
E: 1336457816.438643 0000 0000 0
E: 1336457816.445112 0003 002f 0
E: 1336457816.445112 0003 0035 396
E: 1336457816.445113 0003 0036 421
E: 1336457816.445114 0003 0030 4
E: 1336457816.445115 0003 002f 1
E: 1336457816.445115 0003 0035 383
E: 1336457816.445116 0003 003a 64
E: 1336457816.445116 0003 0030 4
E: 1336457816.445118 0003 0000 396
E: 1336457816.445118 0003 0001 421
E: 1336457816.445119 0000 0000 0
E: 1336457816.451626 0003 002f 0
E: 1336457816.451627 0003 0035 382
E: 1336457816.451627 0003 0036 420
E: 1336457816.451628 0003 003a 59
E: 1336457816.451629 0003 002f 1
E: 1336457816.451629 0003 0035 370
E: 1336457816.451630 0003 0036 944
E: 1336457816.451630 0003 003a 63
E: 1336457816.451632 0003 0000 382
E: 1336457816.451632 0003 0001 420
E: 1336457816.451633 0003 0018 59
E: 1336457816.451633 0000 0000 0
E: 1336457816.458114 0003 002f 0
E: 1336457816.458114 0003 0035 369
E: 1336457816.458115 0003 003a 58
E: 1336457816.458116 0003 002f 1
E: 1336457816.458116 0003 0035 358
E: 1336457816.458118 0003 0000 369
E: 1336457816.458119 0003 0018 58
E: 1336457816.458120 0000 0000 0
E: 1336457816.464646 0003 002f 0
E: 1336457816.464647 0003 0035 360
E: 1336457816.464647 0003 0036 421
E: 1336457816.464648 0003 003a 56
E: 1336457816.464649 0003 002f 1
E: 1336457816.464649 0003 0035 348
E: 1336457816.464650 0003 003a 60
E: 1336457816.464652 0003 0000 360
E: 1336457816.464652 0003 0001 421
E: 1336457816.464653 0003 0018 56
E: 1336457816.464653 0000 0000 0
E: 1336457816.471145 0003 002f 0
E: 1336457816.471146 0003 0035 351
E: 1336457816.471146 0003 003a 60
E: 1336457816.471148 0003 002f 1
E: 1336457816.471148 0003 0035 341
E: 1336457816.471148 0003 0036 943
E: 1336457816.471149 0003 003a 63
E: 1336457816.471151 0003 0000 351
E: 1336457816.471151 0003 0018 60
E: 1336457816.471152 0000 0000 0
E: 1336457816.477641 0003 002f 0
E: 1336457816.477642 0003 0035 340
E: 1336457816.477643 0003 003a 55
E: 1336457816.477644 0003 002f 1
E: 1336457816.477644 0003 0035 331
E: 1336457816.477645 0003 0036 942
E: 1336457816.477645 0003 003a 59
E: 1336457816.477647 0003 0000 340
E: 1336457816.477647 0003 0018 55
E: 1336457816.477648 0000 0000 0
E: 1336457816.484144 0003 002f 0
E: 1336457816.484144 0003 0035 330
E: 1336457816.484145 0003 003a 60
E: 1336457816.484146 0003 002f 1
E: 1336457816.484146 0003 0035 321
E: 1336457816.484147 0003 003a 65
E: 1336457816.484149 0003 0000 330
E: 1336457816.484150 0003 0018 60
E: 1336457816.484150 0000 0000 0
E: 1336457816.490650 0003 002f 0
E: 1336457816.490651 0003 0035 320
E: 1336457816.490651 0003 003a 59
E: 1336457816.490653 0003 002f 1
E: 1336457816.490653 0003 0035 313
E: 1336457816.490653 0003 0036 941
E: 1336457816.490656 0003 0000 320
E: 1336457816.490656 0003 0018 59
E: 1336457816.490657 0000 0000 0
E: 1336457816.497146 0003 002f 0
E: 1336457816.497146 0003 0035 310
E: 1336457816.497147 0003 002f 1
E: 1336457816.497148 0003 0035 305
E: 1336457816.497148 0003 003a 63
E: 1336457816.497150 0003 0000 310
E: 1336457816.497151 0000 0000 0
E: 1336457816.503640 0003 002f 0
E: 1336457816.503641 0003 0035 303
E: 1336457816.503642 0003 002f 1
E: 1336457816.503643 0003 0035 298
E: 1336457816.503643 0003 0036 940
E: 1336457816.503643 0003 003a 65
E: 1336457816.503645 0003 0000 303
E: 1336457816.503646 0000 0000 0
E: 1336457816.510130 0003 002f 0
E: 1336457816.510131 0003 0035 295
E: 1336457816.510132 0003 003a 58
E: 1336457816.510133 0003 002f 1
E: 1336457816.510133 0003 0035 293
E: 1336457816.510134 0003 003a 62
E: 1336457816.510135 0003 0000 295
E: 1336457816.510136 0003 0018 58
E: 1336457816.510137 0000 0000 0
E: 1336457816.516669 0003 002f 0
E: 1336457816.516670 0003 0035 290
E: 1336457816.516670 0003 0036 420
E: 1336457816.516671 0003 003a 59
E: 1336457816.516671 0003 0030 3
E: 1336457816.516672 0003 002f 1
E: 1336457816.516673 0003 0035 285
E: 1336457816.516673 0003 0036 939
E: 1336457816.516674 0003 0030 5
E: 1336457816.516676 0003 0000 290
E: 1336457816.516676 0003 0001 420
E: 1336457816.516677 0003 0018 59
E: 1336457816.516677 0000 0000 0
E: 1336457816.523167 0003 002f 0
E: 1336457816.523167 0003 0035 284
E: 1336457816.523167 0003 0036 421
E: 1336457816.523168 0003 003a 58
E: 1336457816.523169 0003 002f 1
E: 1336457816.523169 0003 0035 278
E: 1336457816.523170 0003 0036 938
E: 1336457816.523170 0003 003a 60
E: 1336457816.523171 0003 0030 4
E: 1336457816.523173 0003 0000 284
E: 1336457816.523173 0003 0001 421
E: 1336457816.523173 0003 0018 58
E: 1336457816.523174 0000 0000 0
E: 1336457816.530732 0003 002f 0
E: 1336457816.530732 0003 0035 281
E: 1336457816.530733 0003 003a 63
E: 1336457816.530733 0003 0030 4
E: 1336457816.530734 0003 002f 1
E: 1336457816.530734 0003 0035 274
E: 1336457816.530735 0003 0036 937
E: 1336457816.530735 0003 003a 70
E: 1336457816.530736 0003 0030 5
E: 1336457816.530738 0003 0000 281
E: 1336457816.530738 0003 0018 63
E: 1336457816.530739 0000 0000 0
E: 1336457816.537263 0003 002f 0
E: 1336457816.537263 0003 0035 276
E: 1336457816.537263 0003 0036 420
E: 1336457816.537264 0003 003a 58
E: 1336457816.537264 0003 0030 3
E: 1336457816.537266 0003 002f 1
E: 1336457816.537266 0003 0035 270
E: 1336457816.537266 0003 0036 936
E: 1336457816.537267 0003 003a 61
E: 1336457816.537267 0003 0030 4
E: 1336457816.537269 0003 0000 276
E: 1336457816.537269 0003 0001 420
E: 1336457816.537270 0003 0018 58
E: 1336457816.537270 0000 0000 0
E: 1336457816.543752 0003 002f 0
E: 1336457816.543753 0003 0035 272
E: 1336457816.543753 0003 003a 56
E: 1336457816.543754 0003 0030 2
E: 1336457816.543755 0003 002f 1
E: 1336457816.543755 0003 0035 266
E: 1336457816.543756 0003 003a 58
E: 1336457816.543756 0003 0030 3
E: 1336457816.543758 0003 0000 272
E: 1336457816.543759 0003 0018 56
E: 1336457816.543759 0000 0000 0
E: 1336457816.550245 0003 002f 0
E: 1336457816.550245 0003 0035 268
E: 1336457816.550247 0003 002f 1
E: 1336457816.550247 0003 0035 262
E: 1336457816.550248 0003 0036 935
E: 1336457816.550248 0003 003a 60
E: 1336457816.550250 0003 0000 268
E: 1336457816.550251 0000 0000 0
E: 1336457816.556753 0003 002f 0
E: 1336457816.556753 0003 0035 265
E: 1336457816.556754 0003 003a 58
E: 1336457816.556755 0003 0030 4
E: 1336457816.556756 0003 002f 1
E: 1336457816.556756 0003 0035 259
E: 1336457816.556756 0003 003a 62
E: 1336457816.556758 0003 0000 265
E: 1336457816.556759 0003 0018 58
E: 1336457816.556759 0000 0000 0
E: 1336457816.563256 0003 002f 0
E: 1336457816.563257 0003 0035 262
E: 1336457816.563257 0003 003a 52
E: 1336457816.563258 0003 0030 2
E: 1336457816.563259 0003 002f 1
E: 1336457816.563259 0003 0035 256
E: 1336457816.563260 0003 0036 934
E: 1336457816.563260 0003 003a 58
E: 1336457816.563261 0003 0030 4
E: 1336457816.563262 0003 0000 262
E: 1336457816.563263 0003 0018 52
E: 1336457816.563263 0000 0000 0
E: 1336457816.569798 0003 002f 0
E: 1336457816.569798 0003 0035 259
E: 1336457816.569799 0003 003a 44
E: 1336457816.569800 0003 002f 1
E: 1336457816.569801 0003 0035 254
E: 1336457816.569801 0003 003a 50
E: 1336457816.569802 0003 0030 3
E: 1336457816.569803 0003 0000 259
E: 1336457816.569804 0003 0018 44
E: 1336457816.569805 0000 0000 0
E: 1336457816.576299 0003 002f 0
E: 1336457816.576299 0003 0035 257
E: 1336457816.576300 0003 003a 34
E: 1336457816.576301 0003 002f 1
E: 1336457816.576301 0003 0035 253
E: 1336457816.576302 0003 0036 933
E: 1336457816.576302 0003 003a 41
E: 1336457816.576303 0003 0030 2
E: 1336457816.576304 0003 0000 257
E: 1336457816.576305 0003 0018 34
E: 1336457816.576306 0000 0000 0
E: 1336457816.588286 0003 002f 0
E: 1336457816.588286 0003 0039 -1
E: 1336457816.588287 0003 002f 1
E: 1336457816.588288 0003 0039 -1
E: 1336457816.588289 0001 014a 0
E: 1336457816.588289 0001 014d 0
E: 1336457816.588291 0003 0018 0
E: 1336457816.588291 0000 0000 0
E: 1336457816.588791 0003 002f 0
E: 1336457816.588791 0003 0039 -1
E: 1336457816.588791 0003 002f 1
E: 1336457816.588791 0003 0039 -1
E: 1336457816.588791 0003 002f 2
E: 1336457816.588791 0003 0039 -1
E: 1336457816.588791 0003 002f 3
E: 1336457816.588791 0003 0039 -1
E: 1336457816.588791 0003 002f 4
E: 1336457816.588791 0003 0039 -1
E: 1336457816.588791 0003 002f 5
E: 1336457816.588791 0003 0039 -1
E: 1336457816.588791 0003 002f 6
E: 1336457816.588791 0003 0039 -1
E: 1336457816.588791 0003 002f 7
E: 1336457816.588791 0003 0039 -1
E: 1336457816.588791 0003 002f 8
E: 1336457816.588791 0003 0039 -1
E: 1336457816.588791 0003 002f 9
E: 1336457816.588791 0003 0039 -1
