E: 3841.185721 0003 002f 0
E: 3841.185721 0003 0030 220
E: 3841.185721 0003 0031 0
E: 3841.185721 0003 0032 0
E: 3841.185721 0003 0033 0
E: 3841.185721 0003 0034 0
E: 3841.185721 0003 0035 1790
E: 3841.185721 0003 0036 306
E: 3841.185721 0003 0037 0
E: 3841.185721 0003 0038 0
E: 3841.185721 0003 0039 1500
E: 3841.185721 0003 003a 60
E: 3841.185721 0003 003b 0
E: 3841.185721 0003 002f 1
E: 3841.185721 0003 0039 -1
E: 3841.185721 0003 002f 2
E: 3841.185721 0003 0039 -1
E: 3841.185721 0003 002f 3
E: 3841.185721 0003 0039 -1
E: 3841.185721 0003 002f 4
E: 3841.185721 0003 0039 -1
E: 3841.185721 0003 002f 5
E: 3841.185721 0003 0039 -1
E: 3841.185721 0003 002f 6
E: 3841.185721 0003 0039 -1
E: 3841.185721 0003 002f 7
E: 3841.185721 0003 0039 -1
E: 3841.185721 0003 002f 8
E: 3841.185721 0003 0039 -1
E: 3841.185721 0003 002f 9
E: 3841.185721 0003 0039 -1
E: 3841.185721 0003 002f 0
E: 3841.185721 0001 0145 1
E: 3841.185721 0001 014a 1
E: 3841.185721 0000 0000 0
E: 3841.191098 0003 003a 63
E: 3841.191100 0003 0030 254
E: 3841.191113 0003 0018 63
E: 3841.191113 0000 0000 0
E: 3841.196732 0003 003a 64
E: 3841.196737 0003 0018 64
E: 3841.196737 0000 0000 0
E: 3841.202133 0003 003a 66
E: 3841.202137 0003 0018 66
E: 3841.202137 0000 0000 0
E: 3841.213256 0003 003a 68
E: 3841.213258 0003 0030 286
E: 3841.213261 0003 0018 68
E: 3841.213261 0000 0000 0
E: 3841.218701 0003 003a 66
E: 3841.218702 0003 0030 254
E: 3841.218704 0003 0018 66
E: 3841.218705 0000 0000 0
E: 3841.224315 0003 003a 70
E: 3841.224317 0003 0030 312
E: 3841.224331 0003 0018 70
E: 3841.224331 0000 0000 0
E: 3841.229712 0003 003a 67
E: 3841.229713 0003 0030 286
E: 3841.229716 0003 0018 67
E: 3841.229716 0000 0000 0
E: 3841.235323 0003 003a 69
E: 3841.235326 0003 0030 312
E: 3841.235339 0003 0018 69
E: 3841.235340 0000 0000 0
E: 3841.240727 0003 003a 67
E: 3841.240730 0003 0030 286
E: 3841.240733 0003 0018 67
E: 3841.240734 0000 0000 0
E: 3841.246434 0003 0035 1788
E: 3841.246437 0003 003a 73
E: 3841.246437 0003 0030 382
E: 3841.246450 0003 0000 1788
E: 3841.246451 0003 0018 73
E: 3841.246451 0000 0000 0
E: 3841.252026 0003 0035 1771
E: 3841.252029 0003 003a 71
E: 3841.252030 0003 0030 404
E: 3841.252045 0003 0000 1771
E: 3841.252045 0003 0018 71
E: 3841.252046 0000 0000 0
E: 3841.257791 0003 0035 1696
E: 3841.257793 0003 0036 308
E: 3841.257793 0003 003a 62
E: 3841.257794 0003 0030 382
E: 3841.257808 0003 0000 1696
E: 3841.257808 0003 0001 308
E: 3841.257808 0003 0018 62
E: 3841.257809 0000 0000 0
E: 3841.263420 0003 0035 1685
E: 3841.263422 0003 0036 309
E: 3841.263423 0003 003a 71
E: 3841.263423 0003 0030 404
E: 3841.263426 0003 0000 1685
E: 3841.263437 0003 0001 309
E: 3841.263437 0003 0018 71
E: 3841.263438 0000 0000 0
E: 3841.269021 0003 0035 1680
E: 3841.269024 0003 003a 69
E: 3841.269027 0003 0000 1680
E: 3841.269028 0003 0018 69
E: 3841.269029 0000 0000 0
E: 3841.274752 0003 0035 1665
E: 3841.274755 0003 0036 303
E: 3841.274755 0003 003a 63
E: 3841.274756 0003 0030 382
E: 3841.274759 0003 0000 1665
E: 3841.274760 0003 0001 303
E: 3841.274771 0003 0018 63
E: 3841.274771 0000 0000 0
E: 3841.280359 0003 0035 1664
E: 3841.280361 0003 0036 304
E: 3841.280362 0003 003a 70
E: 3841.280365 0003 0000 1664
E: 3841.280366 0003 0001 304
E: 3841.280366 0003 0018 70
E: 3841.280367 0000 0000 0
E: 3841.288854 0003 0035 1702
E: 3841.288856 0003 0036 305
E: 3841.288857 0003 003a 69
E: 3841.288857 0003 0030 286
E: 3841.288871 0003 0000 1702
E: 3841.288871 0003 0001 305
E: 3841.288871 0003 0018 69
E: 3841.288871 0000 0000 0
E: 3841.297654 0003 0035 1732
E: 3841.297657 0003 003a 73
E: 3841.297658 0003 0030 312
E: 3841.297672 0003 0000 1732
E: 3841.297672 0003 0018 73
E: 3841.297673 0000 0000 0
E: 3841.306333 0003 0035 1744
E: 3841.306335 0003 0036 306
E: 3841.306336 0003 003a 68
E: 3841.306336 0003 0030 286
E: 3841.306350 0003 0000 1744
E: 3841.306350 0003 0001 306
E: 3841.306350 0003 0018 68
E: 3841.306350 0000 0000 0
E: 3841.316085 0003 0035 1752
E: 3841.316087 0003 0036 307
E: 3841.316088 0003 003a 70
E: 3841.316088 0003 0030 312
E: 3841.316100 0003 002f 1
E: 3841.316101 0003 0039 1501
E: 3841.316101 0003 0035 1504
E: 3841.316101 0003 0036 289
E: 3841.316101 0003 003a 71
E: 3841.316102 0003 0030 360
E: 3841.316102 0001 0145 0
E: 3841.316103 0001 014d 1
E: 3841.316103 0003 0000 1752
E: 3841.316103 0003 0001 307
E: 3841.316104 0003 0018 70
E: 3841.316104 0000 0000 0
E: 3841.325236 0003 002f 0
E: 3841.325238 0003 0035 1756
E: 3841.325239 0003 0030 286
E: 3841.325252 0003 002f 1
E: 3841.325252 0003 003a 69
E: 3841.325254 0003 0000 1756
E: 3841.325254 0000 0000 0
E: 3841.333441 0003 002f 0
E: 3841.333443 0003 0035 1759
E: 3841.333444 0003 003a 73
E: 3841.333445 0003 0030 312
E: 3841.333457 0003 0000 1759
E: 3841.333458 0003 0018 73
E: 3841.333458 0000 0000 0
E: 3841.342598 0003 0035 1762
E: 3841.342600 0003 0036 308
E: 3841.342600 0003 003a 70
E: 3841.342601 0003 0030 286
E: 3841.342614 0003 002f 1
E: 3841.342614 0003 003a 70
E: 3841.342614 0003 0030 338
E: 3841.342616 0003 0000 1762
E: 3841.342616 0003 0001 308
E: 3841.342616 0003 0018 70
E: 3841.342617 0000 0000 0
E: 3841.351284 0003 002f 0
E: 3841.351285 0003 0035 1763
E: 3841.351286 0003 003a 68
E: 3841.351287 0003 0030 312
E: 3841.351288 0003 002f 1
E: 3841.351289 0003 003a 72
E: 3841.351291 0003 0000 1763
E: 3841.351292 0003 0018 68
E: 3841.351293 0000 0000 0
E: 3841.360262 0003 002f 0
E: 3841.360264 0003 0035 1765
E: 3841.360265 0003 003a 76
E: 3841.360267 0003 002f 1
E: 3841.360267 0003 003a 71
E: 3841.360270 0003 0000 1765
E: 3841.360271 0003 0018 76
E: 3841.360282 0000 0000 0
E: 3841.368871 0003 002f 0
E: 3841.368876 0003 0035 1767
E: 3841.368877 0003 003a 64
E: 3841.368878 0003 0030 286
E: 3841.368882 0003 002f 1
E: 3841.368882 0003 003a 78
E: 3841.368895 0003 0000 1767
E: 3841.368895 0003 0018 64
E: 3841.368895 0000 0000 0
E: 3841.377946 0003 002f 0
E: 3841.377948 0003 0035 1768
E: 3841.377949 0003 003a 67
E: 3841.377950 0003 0030 312
E: 3841.377963 0003 002f 1
E: 3841.377963 0003 003a 77
E: 3841.377963 0003 0030 360
E: 3841.377964 0003 0000 1768
E: 3841.377965 0003 0018 67
E: 3841.377965 0000 0000 0
E: 3841.386347 0003 002f 0
E: 3841.386349 0003 0036 309
E: 3841.386349 0003 003a 72
E: 3841.386350 0003 0030 286
E: 3841.386352 0003 002f 1
E: 3841.386352 0003 003a 66
E: 3841.386353 0003 0030 312
E: 3841.386367 0003 0001 309
E: 3841.386367 0003 0018 72
E: 3841.386367 0000 0000 0
E: 3841.395085 0003 002f 0
E: 3841.395097 0003 0035 1769
E: 3841.395098 0003 003a 74
E: 3841.395098 0003 0030 312
E: 3841.395099 0003 002f 1
E: 3841.395099 0003 0035 1505
E: 3841.395099 0003 003a 75
E: 3841.395100 0003 0030 338
E: 3841.395101 0003 0000 1769
E: 3841.395101 0003 0018 74
E: 3841.395102 0000 0000 0
E: 3841.404108 0003 002f 0
E: 3841.404110 0003 003a 72
E: 3841.404111 0003 0030 286
E: 3841.404123 0003 002f 1
E: 3841.404123 0003 0036 290
E: 3841.404123 0003 003a 69
E: 3841.404123 0003 0030 360
E: 3841.404125 0003 0018 72
E: 3841.404125 0000 0000 0
E: 3841.412680 0003 002f 0
E: 3841.412680 0003 0035 1770
E: 3841.412681 0003 0036 310
E: 3841.412681 0003 003a 70
E: 3841.412683 0003 002f 1
E: 3841.412684 0003 003a 73
E: 3841.412684 0003 0030 338
E: 3841.412687 0003 0000 1770
E: 3841.412687 0003 0001 310
E: 3841.412698 0003 0018 70
E: 3841.412698 0000 0000 0
E: 3841.421669 0003 002f 0
E: 3841.421670 0003 003a 72
E: 3841.421675 0003 0018 72
E: 3841.421686 0000 0000 0
E: 3841.430344 0003 003a 67
E: 3841.430349 0003 0018 67
E: 3841.430361 0000 0000 0
E: 3841.438974 0003 002f 1
E: 3841.438976 0003 003a 71
E: 3841.438980 0000 0000 0
E: 3841.448142 0003 002f 0
E: 3841.448155 0003 0035 1771
E: 3841.448155 0003 003a 66
E: 3841.448155 0003 0030 254
E: 3841.448156 0003 002f 1
E: 3841.448156 0003 003a 72
E: 3841.448157 0003 0030 360
E: 3841.448158 0003 0000 1771
E: 3841.448159 0003 0018 66
E: 3841.448159 0000 0000 0
E: 3841.456366 0003 002f 0
E: 3841.456368 0003 003a 59
E: 3841.456370 0003 002f 1
E: 3841.456371 0003 0035 1504
E: 3841.456371 0003 0036 291
E: 3841.456372 0003 003a 71
E: 3841.456372 0003 0030 312
E: 3841.456385 0003 0018 59
E: 3841.456385 0000 0000 0
E: 3841.464856 0003 002f 0
E: 3841.464858 0003 0035 1772
E: 3841.464859 0003 003a 57
E: 3841.464861 0003 002f 1
E: 3841.464861 0003 0035 1503
E: 3841.464862 0003 003a 66
E: 3841.464873 0003 0030 338
E: 3841.464874 0003 0000 1772
E: 3841.464874 0003 0018 57
E: 3841.464875 0000 0000 0
E: 3841.476267 0003 002f 0
E: 3841.476270 0003 003a 39
E: 3841.476271 0003 0030 180
E: 3841.476283 0003 002f 1
E: 3841.476283 0003 0035 1501
E: 3841.476283 0003 003a 44
E: 3841.476284 0003 0030 180
E: 3841.476285 0003 0018 39
E: 3841.476285 0000 0000 0
E: 3841.481813 0003 0035 1498
E: 3841.481814 0003 003a 26
E: 3841.481815 0003 0030 126
E: 3841.481818 0000 0000 0
E: 3841.498288 0003 002f 0
E: 3841.498290 0003 0039 -1
E: 3841.498291 0001 0145 1
E: 3841.498292 0001 014d 0
E: 3841.498304 0003 0000 1498
E: 3841.498304 0003 0001 291
E: 3841.498305 0003 0018 26
E: 3841.498305 0000 0000 0
E: 3841.502260 0003 002f 1
E: 3841.502261 0003 0039 -1
E: 3841.502263 0001 014a 0
E: 3841.502263 0001 0145 0
E: 3841.502265 0003 0018 0
E: 3841.502265 0000 0000 0
E: 3841.502765 0003 002f 0
E: 3841.502765 0003 0039 -1
E: 3841.502765 0003 002f 1
E: 3841.502765 0003 0039 -1
E: 3841.502765 0003 002f 2
E: 3841.502765 0003 0039 -1
E: 3841.502765 0003 002f 3
E: 3841.502765 0003 0039 -1
E: 3841.502765 0003 002f 4
E: 3841.502765 0003 0039 -1
E: 3841.502765 0003 002f 5
E: 3841.502765 0003 0039 -1
E: 3841.502765 0003 002f 6
E: 3841.502765 0003 0039 -1
E: 3841.502765 0003 002f 7
E: 3841.502765 0003 0039 -1
E: 3841.502765 0003 002f 8
E: 3841.502765 0003 0039 -1
E: 3841.502765 0003 002f 9
E: 3841.502765 0003 0039 -1
