E: 1544.752170 0003 002f 0
E: 1544.752170 0003 0039 -1
E: 1544.752170 0003 002f 1
E: 1544.752170 0003 0039 -1
E: 1544.752170 0003 002f 2
E: 1544.752170 0003 0039 -1
E: 1544.752170 0003 002f 3
E: 1544.752170 0003 0039 -1
E: 1544.752170 0003 002f 4
E: 1544.752170 0003 0039 -1
E: 1544.752170 0003 002f 5
E: 1544.752170 0003 0039 -1
E: 1544.752170 0003 002f 6
E: 1544.752170 0003 0039 -1
E: 1544.752170 0003 002f 7
E: 1544.752170 0003 0039 -1
E: 1544.752170 0003 002f 8
E: 1544.752170 0003 0039 -1
E: 1544.752170 0003 002f 9
E: 1544.752170 0003 0039 -1
E: 1544.752170 0003 002f 0
E: 1544.752170 0000 0000 0
E: 1545.173257 0003 002f 0
E: 1545.173258 0003 0039 504
E: 1545.173260 0003 0035 1171
E: 1545.173262 0003 0036 1085
E: 1545.173263 0003 003a 35
E: 1545.173264 0003 0030 180
E: 1545.173266 0001 014a 1
E: 1545.173267 0001 0145 1
E: 1545.173270 0003 0000 1171
E: 1545.173271 0003 0001 1085
E: 1545.173272 0003 0018 35
E: 1545.173274 0000 0000 0
E: 1545.178796 0003 003a 36
E: 1545.178804 0003 0018 36
E: 1545.178806 0000 0000 0
E: 1545.192969 0003 003a 35
E: 1545.192971 0003 0030 220
E: 1545.192978 0003 0018 35
E: 1545.192979 0000 0000 0
E: 1545.197337 0003 003a 34
E: 1545.197345 0003 0018 34
E: 1545.197347 0000 0000 0
E: 1545.203996 0003 003a 37
E: 1545.204026 0003 0018 37
E: 1545.204029 0000 0000 0
E: 1545.211470 0003 003a 38
E: 1545.211474 0003 002f 1
E: 1545.211475 0003 0039 505
E: 1545.211477 0003 0035 1541
E: 1545.211478 0003 0036 923
E: 1545.211479 0003 003a 27
E: 1545.211484 0001 0145 0
E: 1545.211485 0001 014d 1
E: 1545.211490 0003 0018 38
E: 1545.211491 0000 0000 0
E: 1545.218279 0003 002f 0
E: 1545.218280 0003 003a 34
E: 1545.218287 0003 002f 1
E: 1545.218288 0003 003a 26
E: 1545.218289 0003 0030 126
E: 1545.218297 0003 0018 34
E: 1545.218299 0000 0000 0
E: 1545.225195 0003 002f 0
E: 1545.225196 0003 003a 36
E: 1545.225203 0003 002f 1
E: 1545.225204 0003 003a 25
E: 1545.225205 0003 0030 180
E: 1545.225213 0003 0018 36
E: 1545.225215 0000 0000 0
E: 1545.232063 0003 002f 0
E: 1545.232064 0003 003a 35
E: 1545.232071 0003 002f 1
E: 1545.232071 0003 0036 922
E: 1545.232073 0003 0030 126
E: 1545.232082 0003 0018 35
E: 1545.232083 0000 0000 0
E: 1545.239034 0003 002f 0
E: 1545.239035 0003 0036 1084
E: 1545.239082 0003 002f 1
E: 1545.239083 0003 0030 180
E: 1545.239091 0003 0001 1084
E: 1545.239094 0000 0000 0
E: 1545.245661 0003 002f 0
E: 1545.245662 0003 003a 36
E: 1545.245669 0003 002f 1
E: 1545.245669 0003 003a 26
E: 1545.245670 0003 0030 126
E: 1545.245677 0003 0018 36
E: 1545.245678 0000 0000 0
E: 1545.252551 0003 002f 0
E: 1545.252552 0003 003a 39
E: 1545.252557 0003 002f 1
E: 1545.252557 0003 0035 1542
E: 1545.252559 0003 0036 921
E: 1545.252567 0003 0018 39
E: 1545.252569 0000 0000 0
E: 1545.259619 0003 002f 0
E: 1545.259620 0003 003a 34
E: 1545.259628 0003 002f 1
E: 1545.259628 0003 003a 24
E: 1545.259637 0003 0018 34
E: 1545.259638 0000 0000 0
E: 1545.266346 0003 002f 0
E: 1545.266347 0003 0036 1083
E: 1545.266348 0003 003a 36
E: 1545.266354 0003 002f 1
E: 1545.266354 0003 0036 920
E: 1545.266355 0003 003a 26
E: 1545.266363 0003 0001 1083
E: 1545.266364 0003 0018 36
E: 1545.266365 0000 0000 0
E: 1545.273235 0003 002f 0
E: 1545.273236 0003 003a 37
E: 1545.273242 0003 002f 1
E: 1545.273242 0003 0036 919
E: 1545.273252 0003 0018 37
E: 1545.273253 0000 0000 0
E: 1545.280183 0003 002f 0
E: 1545.280185 0003 0036 1082
E: 1545.280187 0003 0030 180
E: 1545.280191 0003 002f 1
E: 1545.280192 0003 0035 1543
E: 1545.280193 0003 0036 918
E: 1545.280194 0003 003a 24
E: 1545.280203 0003 0001 1082
E: 1545.280205 0000 0000 0
E: 1545.286836 0003 002f 0
E: 1545.286836 0003 0036 1081
E: 1545.286838 0003 003a 35
E: 1545.286844 0003 002f 1
E: 1545.286844 0003 0036 917
E: 1545.286845 0003 003a 29
E: 1545.286853 0003 0001 1081
E: 1545.286854 0003 0018 35
E: 1545.286855 0000 0000 0
E: 1545.293756 0003 002f 0
E: 1545.293757 0003 0036 1079
E: 1545.293759 0003 003a 34
E: 1545.293765 0003 002f 1
E: 1545.293765 0003 0036 915
E: 1545.293766 0003 003a 25
E: 1545.293774 0003 0001 1079
E: 1545.293775 0003 0018 34
E: 1545.293777 0000 0000 0
E: 1545.300429 0003 002f 0
E: 1545.300430 0003 0035 1172
E: 1545.300431 0003 0036 1076
E: 1545.300432 0003 003a 35
E: 1545.300437 0003 002f 1
E: 1545.300438 0003 0035 1546
E: 1545.300439 0003 0036 912
E: 1545.300440 0003 003a 26
E: 1545.300446 0003 0000 1172
E: 1545.300447 0003 0001 1076
E: 1545.300449 0003 0018 35
E: 1545.300450 0000 0000 0
E: 1545.307261 0003 002f 0
E: 1545.307261 0003 0035 1173
E: 1545.307263 0003 0036 1071
E: 1545.307264 0003 003a 37
E: 1545.307269 0003 002f 1
E: 1545.307269 0003 0035 1548
E: 1545.307270 0003 0036 907
E: 1545.307271 0003 003a 28
E: 1545.307278 0003 0000 1173
E: 1545.307279 0003 0001 1071
E: 1545.307280 0003 0018 37
E: 1545.307281 0000 0000 0
E: 1545.314802 0003 002f 0
E: 1545.314803 0003 0035 1174
E: 1545.314804 0003 0036 1065
E: 1545.314805 0003 003a 34
E: 1545.314806 0003 0030 126
E: 1545.314811 0003 002f 1
E: 1545.314811 0003 0035 1550
E: 1545.314812 0003 0036 902
E: 1545.314814 0003 003a 27
E: 1545.314821 0003 0000 1174
E: 1545.314822 0003 0001 1065
E: 1545.314823 0003 0018 34
E: 1545.314825 0000 0000 0
E: 1545.321495 0003 002f 0
E: 1545.321495 0003 0035 1178
E: 1545.321497 0003 0036 1052
E: 1545.321498 0003 003a 40
E: 1545.321499 0003 0030 180
E: 1545.321503 0003 002f 1
E: 1545.321504 0003 0035 1553
E: 1545.321505 0003 0036 894
E: 1545.321512 0003 0000 1178
E: 1545.321513 0003 0001 1052
E: 1545.321515 0003 0018 40
E: 1545.321516 0000 0000 0
E: 1545.328262 0003 002f 0
E: 1545.328263 0003 0035 1180
E: 1545.328264 0003 0036 1040
E: 1545.328266 0003 003a 36
E: 1545.328267 0003 0030 126
E: 1545.328271 0003 002f 1
E: 1545.328271 0003 0035 1560
E: 1545.328272 0003 0036 882
E: 1545.328274 0003 003a 28
E: 1545.328280 0003 0000 1180
E: 1545.328281 0003 0001 1040
E: 1545.328282 0003 0018 36
E: 1545.328284 0000 0000 0
E: 1545.335125 0003 002f 0
E: 1545.335126 0003 0035 1190
E: 1545.335128 0003 0036 1020
E: 1545.335129 0003 003a 35
E: 1545.335134 0003 002f 1
E: 1545.335134 0003 0035 1563
E: 1545.335135 0003 0036 870
E: 1545.335137 0003 003a 26
E: 1545.335143 0003 0000 1190
E: 1545.335145 0003 0001 1020
E: 1545.335146 0003 0018 35
E: 1545.335147 0000 0000 0
E: 1545.342040 0003 002f 0
E: 1545.342041 0003 0035 1194
E: 1545.342042 0003 0036 1004
E: 1545.342044 0003 003a 36
E: 1545.342049 0003 002f 1
E: 1545.342049 0003 0035 1565
E: 1545.342050 0003 0036 860
E: 1545.342052 0003 003a 28
E: 1545.342059 0003 0000 1194
E: 1545.342060 0003 0001 1004
E: 1545.342061 0003 0018 36
E: 1545.342063 0000 0000 0
E: 1545.348827 0003 002f 0
E: 1545.348828 0003 0035 1198
E: 1545.348829 0003 0036 992
E: 1545.348831 0003 0030 180
E: 1545.348836 0003 002f 1
E: 1545.348836 0003 0035 1569
E: 1545.348837 0003 0036 849
E: 1545.348839 0003 003a 26
E: 1545.348840 0003 0030 180
E: 1545.348846 0003 0000 1198
E: 1545.348847 0003 0001 992
E: 1545.348850 0000 0000 0
E: 1545.355494 0003 002f 0
E: 1545.355495 0003 0035 1200
E: 1545.355496 0003 0036 980
E: 1545.355502 0003 002f 1
E: 1545.355503 0003 0035 1572
E: 1545.355504 0003 0036 840
E: 1545.355505 0003 003a 27
E: 1545.355511 0003 0000 1200
E: 1545.355513 0003 0001 980
E: 1545.355515 0000 0000 0
E: 1545.362349 0003 002f 0
E: 1545.362350 0003 0035 1204
E: 1545.362351 0003 0036 967
E: 1545.362352 0003 003a 37
E: 1545.362357 0003 002f 1
E: 1545.362358 0003 0035 1576
E: 1545.362359 0003 0036 830
E: 1545.362360 0003 003a 28
E: 1545.362366 0003 0000 1204
E: 1545.362368 0003 0001 967
E: 1545.362369 0003 0018 37
E: 1545.362370 0000 0000 0
E: 1545.369137 0003 002f 0
E: 1545.369137 0003 0035 1208
E: 1545.369139 0003 0036 954
E: 1545.369140 0003 003a 34
E: 1545.369145 0003 002f 1
E: 1545.369145 0003 0035 1583
E: 1545.369146 0003 0036 818
E: 1545.369148 0003 003a 27
E: 1545.369149 0003 0030 126
E: 1545.369154 0003 0000 1208
E: 1545.369155 0003 0001 954
E: 1545.369156 0003 0018 34
E: 1545.369158 0000 0000 0
E: 1545.375982 0003 002f 0
E: 1545.375983 0003 0035 1210
E: 1545.375984 0003 0036 944
E: 1545.375985 0003 003a 35
E: 1545.375990 0003 002f 1
E: 1545.375990 0003 0035 1590
E: 1545.375991 0003 0036 807
E: 1545.375993 0003 003a 26
E: 1545.375999 0003 0000 1210
E: 1545.376000 0003 0001 944
E: 1545.376010 0003 0018 35
E: 1545.376012 0000 0000 0
E: 1545.382872 0003 002f 0
E: 1545.382872 0003 0035 1213
E: 1545.382873 0003 0036 934
E: 1545.382875 0003 003a 32
E: 1545.382880 0003 002f 1
E: 1545.382880 0003 0035 1593
E: 1545.382881 0003 0036 799
E: 1545.382882 0003 003a 24
E: 1545.382883 0003 0030 180
E: 1545.382889 0003 0000 1213
E: 1545.382890 0003 0001 934
E: 1545.382891 0003 0018 32
E: 1545.382892 0000 0000 0
E: 1545.389777 0003 002f 0
E: 1545.389777 0003 0035 1214
E: 1545.389778 0003 0036 923
E: 1545.389780 0003 0030 126
E: 1545.389784 0003 002f 1
E: 1545.389785 0003 0035 1595
E: 1545.389786 0003 0036 789
E: 1545.389787 0003 003a 26
E: 1545.389793 0003 0000 1214
E: 1545.389795 0003 0001 923
E: 1545.389797 0000 0000 0
E: 1545.396878 0003 002f 0
E: 1545.396879 0003 0035 1217
E: 1545.396880 0003 0036 912
E: 1545.396881 0003 003a 34
E: 1545.396882 0003 0030 180
E: 1545.396887 0003 002f 1
E: 1545.396887 0003 0035 1599
E: 1545.396888 0003 0036 779
E: 1545.396890 0003 003a 27
E: 1545.396897 0003 0000 1217
E: 1545.396898 0003 0001 912
E: 1545.396899 0003 0018 34
E: 1545.396901 0000 0000 0
E: 1545.403751 0003 002f 0
E: 1545.403752 0003 0035 1220
E: 1545.403754 0003 0036 902
E: 1545.403755 0003 003a 32
E: 1545.403760 0003 002f 1
E: 1545.403760 0003 0035 1601
E: 1545.403762 0003 0036 772
E: 1545.403763 0003 003a 28
E: 1545.403770 0003 0000 1220
E: 1545.403771 0003 0001 902
E: 1545.403772 0003 0018 32
E: 1545.403774 0000 0000 0
E: 1545.410610 0003 002f 0
E: 1545.410611 0003 0035 1222
E: 1545.410612 0003 0036 889
E: 1545.410614 0003 003a 30
E: 1545.410615 0003 0030 126
E: 1545.410619 0003 002f 1
E: 1545.410619 0003 0035 1604
E: 1545.410621 0003 0036 763
E: 1545.410628 0003 0000 1222
E: 1545.410629 0003 0001 889
E: 1545.410631 0003 0018 30
E: 1545.410632 0000 0000 0
E: 1545.417349 0003 002f 0
E: 1545.417350 0003 0035 1224
E: 1545.417351 0003 0036 872
E: 1545.417352 0003 003a 24
E: 1545.417357 0003 002f 1
E: 1545.417358 0003 0035 1606
E: 1545.417359 0003 0036 750
E: 1545.417360 0003 003a 22
E: 1545.417361 0003 0030 126
E: 1545.417367 0003 0000 1224
E: 1545.417368 0003 0001 872
E: 1545.417369 0003 0018 24
E: 1545.417370 0000 0000 0
E: 1545.438089 0003 002f 0
E: 1545.438090 0003 0039 -1
E: 1545.438093 0003 002f 1
E: 1545.438093 0003 0039 -1
E: 1545.438096 0001 014a 0
E: 1545.438097 0001 014d 0
E: 1545.438098 0003 0018 0
E: 1545.438099 0000 0000 0
E: 1545.438599 0003 002f 0
E: 1545.438599 0003 0039 -1
E: 1545.438599 0003 002f 1
E: 1545.438599 0003 0039 -1
E: 1545.438599 0003 002f 2
E: 1545.438599 0003 0039 -1
E: 1545.438599 0003 002f 3
E: 1545.438599 0003 0039 -1
E: 1545.438599 0003 002f 4
E: 1545.438599 0003 0039 -1
E: 1545.438599 0003 002f 5
E: 1545.438599 0003 0039 -1
E: 1545.438599 0003 002f 6
E: 1545.438599 0003 0039 -1
E: 1545.438599 0003 002f 7
E: 1545.438599 0003 0039 -1
E: 1545.438599 0003 002f 8
E: 1545.438599 0003 0039 -1
E: 1545.438599 0003 002f 9
E: 1545.438599 0003 0039 -1
