ccopy_reg
_reconstructor
p1
(coptofidelity.detection.trace
Trace
p2
c__builtin__
list
p3
(lp4
g1
(coptofidelity.detection.events
LEDEvent
p5
c__builtin__
object
p6
NtRp7
(dp8
S'uncalib_time'
p9
I263
sS'start_time'
p10
NsS'uncalib_start_time'
p11
NsS'state'
p12
I01
sS'location'
p13
NsS'time'
p14
I259
sS'uncalib_location'
p15
Nsbag1
(coptofidelity.detection.events
ScreenDrawEvent
p16
g6
NtRp17
(dp18
g9
I292
sg10
I285
sg11
I285
sg12
I01
sg13
Nsg14
I292
sg15
Nsbag1
(g5
g6
NtRp19
(dp20
g9
I307
sg10
Nsg11
Nsg12
I00
sg13
Nsg14
I311
sg15
Nsbag1
(g16
g6
NtRp21
(dp22
g9
I337
sg10
I330
sg11
I330
sg12
I00
sg13
Nsg14
I337
sg15
Nsbag1
(g5
g6
NtRp23
(dp24
g9
I416
sg10
Nsg11
Nsg12
I01
sg13
Nsg14
I412
sg15
Nsbag1
(g16
g6
NtRp25
(dp26
g9
I446
sg10
I439
sg11
I439
sg12
I01
sg13
Nsg14
I446
sg15
Nsbag1
(g5
g6
NtRp27
(dp28
g9
I460
sg10
Nsg11
Nsg12
I00
sg13
Nsg14
I464
sg15
Nsbag1
(g16
g6
NtRp29
(dp30
g9
I492
sg10
I484
sg11
I484
sg12
I00
sg13
Nsg14
I492
sg15
Nsbag1
(g5
g6
NtRp31
(dp32
g9
I570
sg10
Nsg11
Nsg12
I01
sg13
Nsg14
I566
sg15
Nsbag1
(g16
g6
NtRp33
(dp34
g9
I596
sg10
I589
sg11
I589
sg12
I01
sg13
Nsg14
I596
sg15
Nsbag1
(g5
g6
NtRp35
(dp36
g9
I614
sg10
Nsg11
Nsg12
I00
sg13
Nsg14
I618
sg15
Nsbag1
(g16
g6
NtRp37
(dp38
g9
I642
sg10
I634
sg11
I634
sg12
I00
sg13
Nsg14
I642
sg15
Nsbag1
(g5
g6
NtRp39
(dp40
g9
I723
sg10
Nsg11
Nsg12
I01
sg13
Nsg14
I719
sg15
Nsbag1
(g16
g6
NtRp41
(dp42
g9
I751
sg10
I744
sg11
I744
sg12
I01
sg13
Nsg14
I751
sg15
Nsbag1
(g5
g6
NtRp43
(dp44
g9
I767
sg10
Nsg11
Nsg12
I00
sg13
Nsg14
I771
sg15
Nsbag1
(g16
g6
NtRp45
(dp46
g9
I796
sg10
I789
sg11
I789
sg12
I00
sg13
Nsg14
I796
sg15
Nsbag1
(g5
g6
NtRp47
(dp48
g9
I876
sg10
Nsg11
Nsg12
I01
sg13
Nsg14
I872
sg15
Nsbag1
(g16
g6
NtRp49
(dp50
g9
I905
sg10
I898
sg11
I898
sg12
I01
sg13
Nsg14
I905
sg15
Nsbag1
(g5
g6
NtRp51
(dp52
g9
I920
sg10
Nsg11
Nsg12
I00
sg13
Nsg14
I924
sg15
Nsbag1
(g16
g6
NtRp53
(dp54
g9
I951
sg10
I943
sg11
I943
sg12
I00
sg13
Nsg14
I951
sg15
Nsbag1
(g5
g6
NtRp55
(dp56
g9
I1030
sg10
Nsg11
Nsg12
I01
sg13
Nsg14
I1026
sg15
Nsbag1
(g16
g6
NtRp57
(dp58
g9
I1055
sg10
I1048
sg11
I1048
sg12
I01
sg13
Nsg14
I1055
sg15
Nsbag1
(g5
g6
NtRp59
(dp60
g9
I1073
sg10
Nsg11
Nsg12
I00
sg13
Nsg14
I1077
sg15
Nsbag1
(g16
g6
NtRp61
(dp62
g9
I1106
sg10
I1098
sg11
I1098
sg12
I00
sg13
Nsg14
I1106
sg15
Nsbag1
(g5
g6
NtRp63
(dp64
g9
I1183
sg10
Nsg11
Nsg12
I01
sg13
Nsg14
I1179
sg15
Nsbag1
(g16
g6
NtRp65
(dp66
g9
I1209
sg10
I1202
sg11
I1202
sg12
I01
sg13
Nsg14
I1209
sg15
Nsbag1
(g5
g6
NtRp67
(dp68
g9
I1227
sg10
Nsg11
Nsg12
I00
sg13
Nsg14
I1231
sg15
Nsbag1
(g16
g6
NtRp69
(dp70
g9
I1255
sg10
I1248
sg11
I1248
sg12
I00
sg13
Nsg14
I1255
sg15
Nsbag1
(g5
g6
NtRp71
(dp72
g9
I1337
sg10
Nsg11
Nsg12
I01
sg13
Nsg14
I1333
sg15
Nsbag1
(g16
g6
NtRp73
(dp74
g9
I1364
sg10
I1357
sg11
I1357
sg12
I01
sg13
Nsg14
I1364
sg15
Nsbag1
(g5
g6
NtRp75
(dp76
g9
I1380
sg10
Nsg11
Nsg12
I00
sg13
Nsg14
I1384
sg15
Nsbag1
(g16
g6
NtRp77
(dp78
g9
I1410
sg10
I1402
sg11
I1402
sg12
I00
sg13
Nsg14
I1410
sg15
Nsbag1
(g5
g6
NtRp79
(dp80
g9
I1490
sg10
Nsg11
Nsg12
I01
sg13
Nsg14
I1486
sg15
Nsbag1
(g16
g6
NtRp81
(dp82
g9
I1514
sg10
I1507
sg11
I1507
sg12
I01
sg13
Nsg14
I1514
sg15
Nsbag1
(g5
g6
NtRp83
(dp84
g9
I1533
sg10
Nsg11
Nsg12
I00
sg13
Nsg14
I1537
sg15
Nsbag1
(g16
g6
NtRp85
(dp86
g9
I1565
sg10
I1557
sg11
I1557
sg12
I00
sg13
Nsg14
I1565
sg15
Nsbag1
(g5
g6
NtRp87
(dp88
g9
I1643
sg10
Nsg11
Nsg12
I01
sg13
Nsg14
I1639
sg15
Nsbag1
(g16
g6
NtRp89
(dp90
g9
I1673
sg10
I1666
sg11
I1666
sg12
I01
sg13
Nsg14
I1673
sg15
Nsbag1
(g5
g6
NtRp91
(dp92
g9
I1687
sg10
Nsg11
Nsg12
I00
sg13
Nsg14
I1691
sg15
Nsbag1
(g16
g6
NtRp93
(dp94
g9
I1719
sg10
I1712
sg11
I1712
sg12
I00
sg13
Nsg14
I1719
sg15
Nsbag1
(g5
g6
NtRp95
(dp96
g9
I1797
sg10
Nsg11
Nsg12
I01
sg13
Nsg14
I1793
sg15
Nsbag1
(g16
g6
NtRp97
(dp98
g9
I1823
sg10
I1816
sg11
I1816
sg12
I01
sg13
Nsg14
I1823
sg15
Nsbag1
(g5
g6
NtRp99
(dp100
g9
I1840
sg10
Nsg11
Nsg12
I00
sg13
Nsg14
I1844
sg15
Nsbag1
(g16
g6
NtRp101
(dp102
g9
I1869
sg10
I1861
sg11
I1861
sg12
I00
sg13
Nsg14
I1869
sg15
Nsbag1
(g5
g6
NtRp103
(dp104
g9
I1950
sg10
Nsg11
Nsg12
I01
sg13
Nsg14
I1946
sg15
Nsbag1
(g16
g6
NtRp105
(dp106
g9
I1978
sg10
I1971
sg11
I1971
sg12
I01
sg13
Nsg14
I1978
sg15
Nsbag1
(g5
g6
NtRp107
(dp108
g9
I1993
sg10
Nsg11
Nsg12
I00
sg13
Nsg14
I1997
sg15
Nsbag1
(g16
g6
NtRp109
(dp110
g9
I2024
sg10
I2016
sg11
I2016
sg12
I00
sg13
Nsg14
I2024
sg15
NsbatRp111
(dp112
S'ms_per_frame'
p113
F3.3333333333333335
sb.