# device: Elan Touchpad
# bit: 0B 00 00 00 00 00 00 00
# key: 00 00 00 00 00 00 00 00 00 00 00 00 00 00 00 00 00 00 00 00 00 00 00 00 00 00 00 00 00 00 00 00 00 00 01 00 00 00 00 00 20 E5 00 00 00 00 00 00 00 00 00 00 00 00 00 00 00 00 00 00 00 00 00 00 00 00 00 00 00 00 00 00 00 00 00 00 00 00 00 00 00 00 00 00 00 00 00 00 00 00 00 00 00 00 00 00
# rel: 00 00 00 00 00 00 00 00
# abs: 03 00 00 11 00 80 63 06
# led: 00 00 00 00 00 00 00 00
# prp: 05 00 00 00 00 00 00 00
# absinfo: 0 0 3108 0 0 31
# absinfo: 1 0 2032 0 0 31
# absinfo: 24 0 255 0 0 0
# absinfo: 28 0 15 0 0 0
# absinfo: 47 0 4 0 0 0
# absinfo: 48 0 2340 0 0 0
# absinfo: 49 0 2325 0 0 0
# absinfo: 53 0 3108 0 0 31
# absinfo: 54 0 2032 0 0 31
# absinfo: 57 0 65535 0 0 0
# absinfo: 58 0 255 0 0 0
E: 8548.963790 0003 002f 0
E: 8548.963790 0003 0030 198
E: 8548.963790 0003 0031 195
E: 8548.963790 0003 0032 0
E: 8548.963790 0003 0033 0
E: 8548.963790 0003 0034 0
E: 8548.963790 0003 0035 2033
E: 8548.963790 0003 0036 397
E: 8548.963790 0003 0037 0
E: 8548.963790 0003 0038 0
E: 8548.963790 0003 0039 90
E: 8548.963790 0003 003a 52
E: 8548.963790 0003 003b 0
E: 8548.963790 0003 002f 1
E: 8548.963790 0003 0030 198
E: 8548.963790 0003 0031 195
E: 8548.963790 0003 0032 0
E: 8548.963790 0003 0033 0
E: 8548.963790 0003 0034 0
E: 8548.963790 0003 0035 1471
E: 8548.963790 0003 0036 405
E: 8548.963790 0003 0037 0
E: 8548.963790 0003 0038 0
E: 8548.963790 0003 0039 91
E: 8548.963790 0003 003a 56
E: 8548.963790 0003 003b 0
E: 8548.963790 0003 002f 2
E: 8548.963790 0003 0039 -1
E: 8548.963790 0003 002f 3
E: 8548.963790 0003 0039 -1
E: 8548.963790 0003 002f 4
E: 8548.963790 0003 0039 -1
E: 8548.963790 0003 002f 1
E: 8548.963790 0001 014a 1
E: 8548.963790 0001 014d 1
E: 8548.963790 0000 0000 0
E: 8548.973081 0003 003a 57
E: 8548.973081 0000 0000 0
E: 8548.983122 0003 002f 0
E: 8548.983122 0003 003a 53
E: 8548.983122 0003 002f 1
E: 8548.983122 0003 003a 58
E: 8548.983122 0003 0018 53
E: 8548.983122 0000 0000 0
E: 8548.992999 0003 002f 0
E: 8548.992999 0003 003a 54
E: 8548.992999 0003 0018 54
E: 8548.992999 0000 0000 0
E: 8549.002804 0003 003a 55
E: 8549.002804 0003 002f 1
E: 8549.002804 0003 003a 60
E: 8549.002804 0003 0030 264
E: 8549.002804 0003 0018 55
E: 8549.002804 0000 0000 0
E: 8549.013524 0003 002f 0
E: 8549.013524 0003 003a 57
E: 8549.013524 0003 0018 57
E: 8549.013524 0000 0000 0
E: 8549.023109 0003 0035 2028
E: 8549.023109 0003 0036 414
E: 8549.023109 0003 003a 55
E: 8549.023109 0003 002f 1
E: 8549.023109 0003 0035 1466
E: 8549.023109 0003 0036 423
E: 8549.023109 0003 003a 58
E: 8549.023109 0003 0030 198
E: 8549.023109 0003 0000 2028
E: 8549.023109 0003 0001 414
E: 8549.023109 0003 0018 55
E: 8549.023109 0000 0000 0
E: 8549.032793 0003 002f 0
E: 8549.032793 0003 0035 2018
E: 8549.032793 0003 0036 452
E: 8549.032793 0003 002f 1
E: 8549.032793 0003 0035 1458
E: 8549.032793 0003 0036 461
E: 8549.032793 0003 0000 2018
E: 8549.032793 0003 0001 452
E: 8549.032793 0000 0000 0
E: 8549.042765 0003 002f 0
E: 8549.042765 0003 0035 2006
E: 8549.042765 0003 0036 516
E: 8549.042765 0003 003a 57
E: 8549.042765 0003 002f 1
E: 8549.042765 0003 0035 1445
E: 8549.042765 0003 0036 520
E: 8549.042765 0003 003a 60
E: 8549.042765 0003 0030 264
E: 8549.042765 0003 0000 2006
E: 8549.042765 0003 0001 516
E: 8549.042765 0003 0018 57
E: 8549.042765 0000 0000 0
E: 8549.052417 0003 002f 0
E: 8549.052417 0003 0035 1989
E: 8549.052417 0003 0036 631
E: 8549.052417 0003 003a 54
E: 8549.052417 0003 002f 1
E: 8549.052417 0003 0035 1430
E: 8549.052417 0003 0036 621
E: 8549.052417 0003 003a 57
E: 8549.052417 0003 0030 198
E: 8549.052417 0003 0000 1989
E: 8549.052417 0003 0001 631
E: 8549.052417 0003 0018 54
E: 8549.052417 0000 0000 0
E: 8549.062472 0003 002f 0
E: 8549.062472 0003 0035 1980
E: 8549.062472 0003 0036 770
E: 8549.062472 0003 003a 52
E: 8549.062472 0003 002f 1
E: 8549.062472 0003 0035 1417
E: 8549.062472 0003 0036 745
E: 8549.062472 0003 003a 56
E: 8549.062472 0003 0000 1980
E: 8549.062472 0003 0001 770
E: 8549.062472 0003 0018 52
E: 8549.062472 0000 0000 0
E: 8549.072324 0003 002f 0
E: 8549.072324 0003 0035 1979
E: 8549.072324 0003 0036 836
E: 8549.072324 0003 002f 1
E: 8549.072324 0003 0035 1413
E: 8549.072324 0003 0036 797
E: 8549.072324 0003 0000 1979
E: 8549.072324 0003 0001 836
E: 8549.072324 0000 0000 0
E: 8549.082583 0003 002f 0
E: 8549.082583 0003 0035 1985
E: 8549.082583 0003 0036 895
E: 8549.082583 0003 002f 1
E: 8549.082583 0003 0035 1405
E: 8549.082583 0003 0036 860
E: 8549.082583 0003 0030 264
E: 8549.082583 0003 0000 1985
E: 8549.082583 0003 0001 895
E: 8549.082583 0000 0000 0
E: 8549.092043 0003 002f 0
E: 8549.092043 0003 0035 1983
E: 8549.092043 0003 0036 961
E: 8549.092043 0003 003a 51
E: 8549.092043 0003 002f 1
E: 8549.092043 0003 0035 1402
E: 8549.092043 0003 0036 906
E: 8549.092043 0003 003a 57
E: 8549.092043 0003 0030 198
E: 8549.092043 0003 0000 1983
E: 8549.092043 0003 0001 961
E: 8549.092043 0003 0018 51
E: 8549.092043 0000 0000 0
E: 8549.102036 0003 002f 0
E: 8549.102036 0003 0035 1985
E: 8549.102036 0003 0036 1006
E: 8549.102036 0003 003a 52
E: 8549.102036 0003 0030 195
E: 8549.102036 0003 0031 132
E: 8549.102036 0003 002f 1
E: 8549.102036 0003 0035 1396
E: 8549.102036 0003 0036 942
E: 8549.102036 0003 003a 56
E: 8549.102036 0003 0000 1985
E: 8549.102036 0003 0001 1006
E: 8549.102036 0003 0018 52
E: 8549.102036 0000 0000 0
E: 8549.112318 0003 002f 0
E: 8549.112318 0003 0035 1989
E: 8549.112318 0003 0036 1029
E: 8549.112318 0003 0030 198
E: 8549.112318 0003 0031 195
E: 8549.112318 0003 002f 1
E: 8549.112318 0003 0035 1392
E: 8549.112318 0003 0036 967
E: 8549.112318 0003 0000 1989
E: 8549.112318 0003 0001 1029
E: 8549.112318 0000 0000 0
E: 8549.122039 0003 002f 0
E: 8549.122039 0003 0036 1038
E: 8549.122039 0003 002f 1
E: 8549.122039 0003 0035 1389
E: 8549.122039 0003 0036 977
E: 8549.122039 0003 0001 1038
E: 8549.122039 0000 0000 0
E: 8549.132038 0003 002f 0
E: 8549.132038 0003 0036 1041
E: 8549.132038 0003 002f 1
E: 8549.132038 0003 0035 1388
E: 8549.132038 0003 0036 980
E: 8549.132038 0003 0001 1041
E: 8549.132038 0000 0000 0
E: 8549.141952 0003 0035 1389
E: 8549.141952 0003 0036 982
E: 8549.141952 0000 0000 0
E: 8549.151941 0003 003a 57
E: 8549.151941 0000 0000 0
E: 8549.171815 0003 0036 981
E: 8549.171815 0000 0000 0
E: 8549.181880 0003 0035 1388
E: 8549.181880 0000 0000 0
E: 8549.192300 0003 002f 0
E: 8549.192300 0003 0036 1040
E: 8549.192300 0003 002f 1
E: 8549.192300 0003 0036 980
E: 8549.192300 0003 0001 1040
E: 8549.192300 0000 0000 0
E: 8549.232467 0003 002f 0
E: 8549.232467 0003 0036 1039
E: 8549.232467 0003 002f 1
E: 8549.232467 0003 0035 1387
E: 8549.232467 0003 0036 979
E: 8549.232467 0003 0001 1039
E: 8549.232467 0000 0000 0
E: 8549.251524 0003 002f 0
E: 8549.251524 0003 0036 1038
E: 8549.251524 0003 002f 1
E: 8549.251524 0003 0036 978
E: 8549.251524 0003 0001 1038
E: 8549.251524 0000 0000 0
E: 8549.262280 0003 003a 58
E: 8549.262280 0000 0000 0
E: 8549.271710 0003 003a 57
E: 8549.271710 0000 0000 0
E: 8549.281638 0003 003a 58
E: 8549.281638 0000 0000 0
E: 8549.291614 0003 002f 0
E: 8549.291614 0003 0035 1988
E: 8549.291614 0003 0000 1988
E: 8549.291614 0000 0000 0
E: 8549.321188 0003 0036 1037
E: 8549.321188 0003 002f 1
E: 8549.321188 0003 0036 977
E: 8549.321188 0003 0001 1037
E: 8549.321188 0000 0000 0
E: 8549.371732 0003 002f 0
E: 8549.371732 0003 0035 1989
E: 8549.371732 0003 0000 1989
E: 8549.371732 0000 0000 0
E: 8549.380903 0003 002f 1
E: 8549.380903 0003 0036 976
E: 8549.380903 0000 0000 0
E: 8549.400800 0003 002f 0
E: 8549.400800 0003 003a 53
E: 8549.400800 0003 0018 53
E: 8549.400800 0000 0000 0
E: 8549.421014 0003 0035 1990
E: 8549.421014 0003 002f 1
E: 8549.421014 0003 003a 57
E: 8549.421014 0003 0000 1990
E: 8549.421014 0000 0000 0
E: 8549.450560 0003 003a 58
E: 8549.450560 0000 0000 0
E: 8549.460502 0003 002f 0
E: 8549.460502 0003 003a 52
E: 8549.460502 0003 002f 1
E: 8549.460502 0003 0036 977
E: 8549.460502 0003 0018 52
E: 8549.460502 0000 0000 0
E: 8549.471254 0003 002f 0
E: 8549.471254 0003 0035 1989
E: 8549.471254 0003 002f 1
E: 8549.471254 0003 0036 978
E: 8549.471254 0003 003a 57
E: 8549.471254 0003 0000 1989
E: 8549.471254 0000 0000 0
E: 8549.480386 0003 002f 0
E: 8549.480386 0003 0035 1988
E: 8549.480386 0003 0036 1038
E: 8549.480386 0003 002f 1
E: 8549.480386 0003 0036 981
E: 8549.480386 0003 003a 56
E: 8549.480386 0003 0000 1988
E: 8549.480386 0003 0001 1038
E: 8549.480386 0000 0000 0
E: 8549.490855 0003 002f 0
E: 8549.490855 0003 0035 1986
E: 8549.490855 0003 0036 1040
E: 8549.490855 0003 003a 50
E: 8549.490855 0003 002f 1
E: 8549.490855 0003 0036 984
E: 8549.490855 0003 003a 52
E: 8549.490855 0003 0000 1986
E: 8549.490855 0003 0001 1040
E: 8549.490855 0003 0018 50
E: 8549.490855 0000 0000 0
E: 8549.499939 0003 001c 1
E: 8549.499939 0003 0030 66
E: 8549.499939 0003 0031 65
E: 8549.499939 0000 0000 0
E: 8549.510523 0003 002f 0
E: 8549.510523 0003 0030 66
E: 8549.510523 0003 0031 65
E: 8549.510523 0000 0000 0
E: 8549.520029 0003 0039 -1
E: 8549.520029 0003 002f 1
E: 8549.520029 0003 0039 -1
E: 8549.520029 0001 014a 0
E: 8549.520029 0001 014d 0
E: 8549.520029 0003 0018 0
E: 8549.520029 0000 0000 0
E: 8549.520529 0003 002f 0
E: 8549.520529 0003 0039 -1
E: 8549.520529 0003 002f 1
E: 8549.520529 0003 0039 -1
E: 8549.520529 0003 002f 2
E: 8549.520529 0003 0039 -1
E: 8549.520529 0003 002f 3
E: 8549.520529 0003 0039 -1
E: 8549.520529 0003 002f 4
E: 8549.520529 0003 0039 -1
