ccopy_reg
_reconstructor
p1
(coptofidelity.detection.trace
Trace
p2
c__builtin__
list
p3
(lp4
g1
(coptofidelity.detection.events
LEDEvent
p5
c__builtin__
object
p6
NtRp7
(dp8
S'start_time'
p9
NsS'state'
p10
I01
sS'location'
p11
NsS'time'
p12
I269
sbag1
(coptofidelity.detection.events
ScreenDrawEvent
p13
g6
NtRp14
(dp15
g9
I293
sg10
I01
sg11
Nsg12
I300
sbag1
(g5
g6
NtRp16
(dp17
g9
Nsg10
I00
sg11
Nsg12
I332
sbag1
(g13
g6
NtRp18
(dp19
g9
I357
sg10
I00
sg11
Nsg12
I363
sbag1
(g5
g6
NtRp20
(dp21
g9
Nsg10
I01
sg11
Nsg12
I680
sbag1
(g13
g6
NtRp22
(dp23
g9
I702
sg10
I01
sg11
Nsg12
I708
sbag1
(g5
g6
NtRp24
(dp25
g9
Nsg10
I00
sg11
Nsg12
I743
sbag1
(g13
g6
NtRp26
(dp27
g9
I766
sg10
I00
sg11
Nsg12
I772
sbag1
(g5
g6
NtRp28
(dp29
g9
Nsg10
I01
sg11
Nsg12
I1091
sbag1
(g13
g6
NtRp30
(dp31
g9
I1115
sg10
I01
sg11
Nsg12
I1122
sbag1
(g5
g6
NtRp32
(dp33
g9
Nsg10
I00
sg11
Nsg12
I1154
sbag1
(g13
g6
NtRp34
(dp35
g9
I1174
sg10
I00
sg11
Nsg12
I1180
sbag1
(g5
g6
NtRp36
(dp37
g9
Nsg10
I01
sg11
Nsg12
I1502
sbag1
(g13
g6
NtRp38
(dp39
g9
I1524
sg10
I01
sg11
Nsg12
I1530
sbag1
(g13
g6
NtRp40
(dp41
g9
I1583
sg10
I00
sg11
Nsg12
I1589
sbatRp42
.