{
  "entries": [
    {
      "buttonsDown": 0,
      "fingers": [
        {
          "flags": 0,
          "orientation": 0,
          "positionX": 294,
          "positionY": 314,
          "pressure": 46,
          "touchMajor": 0,
          "touchMinor": 0,
          "trackingId": 757,
          "widthMajor": 0,
          "widthMinor": 0
        }
      ],
      "timestamp": 1879.875894,
      "touchCount": 1,
      "type": "hardwareState"
    },
    {
      "type": "callbackRequest",
      "when": 0.01700000000005275
    },
    {
      "now": 1879.892800893,
      "type": "timerCallback"
    },
    {
      "type": "callbackRequest",
      "when": 0.00009310700011155859
    },
    {
      "now": 1879.893919828,
      "type": "timerCallback"
    },
    {
      "type": "callbackRequest",
      "when": 0.07999999999992724
    },
    {
      "buttonsDown": 0,
      "fingers": [
        {
          "flags": 0,
          "orientation": 0,
          "positionX": 379,
          "positionY": 314,
          "pressure": 52,
          "touchMajor": 0,
          "touchMinor": 0,
          "trackingId": 757,
          "widthMajor": 0,
          "widthMinor": 0
        }
      ],
      "timestamp": 1879.925631,
      "touchCount": 1,
      "type": "hardwareState"
    },
    {
      "dx": 30,
      "dy": 0,
      "endTime": 1879.925631,
      "gestureType": "move",
      "startTime": 1879.875894,
      "type": "gesture"
    },
    {
      "type": "callbackRequest",
      "when": 0.030262999999877138
    },
    {
      "buttonsDown": 0,
      "fingers": [
        {
          "flags": 0,
          "orientation": 0,
          "positionX": 404,
          "positionY": 314,
          "pressure": 51,
          "touchMajor": 0,
          "touchMinor": 0,
          "trackingId": 757,
          "widthMajor": 0,
          "widthMinor": 0
        }
      ],
      "timestamp": 1879.93464,
      "touchCount": 1,
      "type": "hardwareState"
    },
    {
      "dx": 59,
      "dy": 0,
      "endTime": 1879.93464,
      "gestureType": "move",
      "startTime": 1879.925631,
      "type": "gesture"
    },
    {
      "type": "callbackRequest",
      "when": 0.021253999999998996
    },
    {
      "buttonsDown": 0,
      "fingers": [
        {
          "flags": 0,
          "orientation": 0,
          "positionX": 441,
          "positionY": 314,
          "pressure": 49,
          "touchMajor": 0,
          "touchMinor": 0,
          "trackingId": 757,
          "widthMajor": 0,
          "widthMinor": 0
        }
      ],
      "timestamp": 1879.943438,
      "touchCount": 1,
      "type": "hardwareState"
    },
    {
      "dx": 101,
      "dy": 0,
      "endTime": 1879.943438,
      "gestureType": "move",
      "startTime": 1879.93464,
      "type": "gesture"
    },
    {
      "type": "callbackRequest",
      "when": 0.01245599999992919
    },
    {
      "buttonsDown": 0,
      "fingers": [
        {
          "flags": 0,
          "orientation": 0,
          "positionX": 477,
          "positionY": 313,
          "pressure": 47,
          "touchMajor": 0,
          "touchMinor": 0,
          "trackingId": 757,
          "widthMajor": 0,
          "widthMinor": 0
        }
      ],
      "timestamp": 1879.952567,
      "touchCount": 1,
      "type": "hardwareState"
    },
    {
      "dx": 97,
      "dy": 0,
      "endTime": 1879.952567,
      "gestureType": "move",
      "startTime": 1879.943438,
      "type": "gesture"
    },
    {
      "type": "callbackRequest",
      "when": 0.0033269999998992716
    },
    {
      "now": 1879.95603813,
      "type": "timerCallback"
    },
    {
      "endTime": 1879.95603813,
      "flingState": 1,
      "gestureType": "fling",
      "startTime": 1879.952567,
      "type": "gesture",
      "vx": 0,
      "vy": 0
    },
    {
      "buttonsDown": 0,
      "fingers": [
        {
          "flags": 0,
          "orientation": 0,
          "positionX": 516,
          "positionY": 310,
          "pressure": 46,
          "touchMajor": 0,
          "touchMinor": 0,
          "trackingId": 757,
          "widthMajor": 0,
          "widthMinor": 0
        }
      ],
      "timestamp": 1879.961315,
      "touchCount": 1,
      "type": "hardwareState"
    },
    {
      "dx": 109,
      "dy": 0,
      "endTime": 1879.961315,
      "gestureType": "move",
      "startTime": 1879.952567,
      "type": "gesture"
    },
    {
      "type": "callbackRequest",
      "when": 0
    },
    {
      "buttonsDown": 0,
      "fingers": [
        {
          "flags": 0,
          "orientation": 0,
          "positionX": 556,
          "positionY": 308,
          "pressure": 46,
          "touchMajor": 0,
          "touchMinor": 0,
          "trackingId": 757,
          "widthMajor": 0,
          "widthMinor": 0
        }
      ],
      "timestamp": 1879.970542,
      "touchCount": 1,
      "type": "hardwareState"
    },
    {
      "dx": 111,
      "dy": -3,
      "endTime": 1879.970542,
      "gestureType": "move",
      "startTime": 1879.961315,
      "type": "gesture"
    },
    {
      "type": "callbackRequest",
      "when": 0
    },
    {
      "buttonsDown": 0,
      "fingers": [
        {
          "flags": 0,
          "orientation": 0,
          "positionX": 591,
          "positionY": 305,
          "pressure": 43,
          "touchMajor": 0,
          "touchMinor": 0,
          "trackingId": 757,
          "widthMajor": 0,
          "widthMinor": 0
        }
      ],
      "timestamp": 1879.979145,
      "touchCount": 1,
      "type": "hardwareState"
    },
    {
      "dx": 95,
      "dy": -10,
      "endTime": 1879.979145,
      "gestureType": "move",
      "startTime": 1879.970542,
      "type": "gesture"
    },
    {
      "type": "callbackRequest",
      "when": 0
    },
    {
      "buttonsDown": 0,
      "fingers": [
        {
          "flags": 0,
          "orientation": 0,
          "positionX": 633,
          "positionY": 304,
          "pressure": 42,
          "touchMajor": 0,
          "touchMinor": 0,
          "trackingId": 757,
          "widthMajor": 0,
          "widthMinor": 0
        }
      ],
      "timestamp": 1879.988213,
      "touchCount": 1,
      "type": "hardwareState"
    },
    {
      "dx": 118,
      "dy": -3,
      "endTime": 1879.988213,
      "gestureType": "move",
      "startTime": 1879.979145,
      "type": "gesture"
    },
    {
      "type": "callbackRequest",
      "when": 0
    },
    {
      "buttonsDown": 0,
      "fingers": [
        {
          "flags": 0,
          "orientation": 0,
          "positionX": 664,
          "positionY": 300,
          "pressure": 38,
          "touchMajor": 0,
          "touchMinor": 0,
          "trackingId": 757,
          "widthMajor": 0,
          "widthMinor": 0
        }
      ],
      "timestamp": 1879.996971,
      "touchCount": 1,
      "type": "hardwareState"
    },
    {
      "type": "callbackRequest",
      "when": 0
    },
    {
      "buttonsDown": 0,
      "fingers": [
        {
          "flags": 0,
          "orientation": 0,
          "positionX": 699,
          "positionY": 298,
          "pressure": 38,
          "touchMajor": 0,
          "touchMinor": 0,
          "trackingId": 757,
          "widthMajor": 0,
          "widthMinor": 0
        }
      ],
      "timestamp": 1880.005779,
      "touchCount": 1,
      "type": "hardwareState"
    },
    {
      "dx": 95,
      "dy": -6,
      "endTime": 1880.005779,
      "gestureType": "move",
      "startTime": 1879.996971,
      "type": "gesture"
    },
    {
      "type": "callbackRequest",
      "when": 0
    },
    {
      "buttonsDown": 0,
      "fingers": [
        {
          "flags": 0,
          "orientation": 0,
          "positionX": 721,
          "positionY": 297,
          "pressure": 32,
          "touchMajor": 0,
          "touchMinor": 0,
          "trackingId": 757,
          "widthMajor": 0,
          "widthMinor": 0
        }
      ],
      "timestamp": 1880.014711,
      "touchCount": 1,
      "type": "hardwareState"
    },
    {
      "type": "callbackRequest",
      "when": 0
    },
    {
      "buttonsDown": 0,
      "fingers": [
        {
          "flags": 0,
          "orientation": 0,
          "positionX": 742,
          "positionY": 293,
          "pressure": 20,
          "touchMajor": 0,
          "touchMinor": 0,
          "trackingId": 757,
          "widthMajor": 0,
          "widthMinor": 0
        }
      ],
      "timestamp": 1880.023331,
      "touchCount": 1,
      "type": "hardwareState"
    },
    {
      "type": "callbackRequest",
      "when": 0
    },
    {
      "buttonsDown": 0,
      "fingers": [
        {
          "flags": 0,
          "orientation": 0,
          "positionX": 756,
          "positionY": 292,
          "pressure": 8,
          "touchMajor": 0,
          "touchMinor": 0,
          "trackingId": 757,
          "widthMajor": 0,
          "widthMinor": 0
        }
      ],
      "timestamp": 1880.031854,
      "touchCount": 1,
      "type": "hardwareState"
    },
    {
      "type": "callbackRequest",
      "when": 0
    },
    {
      "buttonsDown": 0,
      "fingers": [],
      "timestamp": 1880.039498,
      "touchCount": 0,
      "type": "hardwareState"
    },
    {
      "type": "callbackRequest",
      "when": 0
    },
    {
      "buttonsDown": 0,
      "fingers": [
        {
          "flags": 0,
          "orientation": 0,
          "positionX": 371,
          "positionY": 299,
          "pressure": 37,
          "touchMajor": 0,
          "touchMinor": 0,
          "trackingId": 758,
          "widthMajor": 0,
          "widthMinor": 0
        }
      ],
      "timestamp": 1880.173783,
      "touchCount": 1,
      "type": "hardwareState"
    },
    {
      "type": "callbackRequest",
      "when": 0.01700000000005275
    },
    {
      "buttonsDown": 0,
      "fingers": [
        {
          "flags": 0,
          "orientation": 0,
          "positionX": 370,
          "positionY": 302,
          "pressure": 50,
          "touchMajor": 0,
          "touchMinor": 0,
          "trackingId": 758,
          "widthMajor": 0,
          "widthMinor": 0
        }
      ],
      "timestamp": 1880.182766,
      "touchCount": 1,
      "type": "hardwareState"
    },
    {
      "type": "callbackRequest",
      "when": 0.008017000000108965
    },
    {
      "buttonsDown": 0,
      "fingers": [
        {
          "flags": 0,
          "orientation": 0,
          "positionX": 370,
          "positionY": 302,
          "pressure": 52,
          "touchMajor": 0,
          "touchMinor": 0,
          "trackingId": 758,
          "widthMajor": 0,
          "widthMinor": 0
        }
      ],
      "timestamp": 1880.191365,
      "touchCount": 1,
      "type": "hardwareState"
    },
    {
      "type": "callbackRequest",
      "when": 0.062417999999979656
    },
    {
      "buttonsDown": 0,
      "fingers": [
        {
          "flags": 0,
          "orientation": 0,
          "positionX": 370,
          "positionY": 302,
          "pressure": 53,
          "touchMajor": 0,
          "touchMinor": 0,
          "trackingId": 758,
          "widthMajor": 0,
          "widthMinor": 0
        }
      ],
      "timestamp": 1880.200271,
      "touchCount": 1,
      "type": "hardwareState"
    },
    {
      "type": "callbackRequest",
      "when": 0.05351199999995515
    },
    {
      "buttonsDown": 0,
      "fingers": [
        {
          "flags": 0,
          "orientation": 0,
          "positionX": 371,
          "positionY": 302,
          "pressure": 53,
          "touchMajor": 0,
          "touchMinor": 0,
          "trackingId": 758,
          "widthMajor": 0,
          "widthMinor": 0
        }
      ],
      "timestamp": 1880.208888,
      "touchCount": 1,
      "type": "hardwareState"
    },
    {
      "type": "callbackRequest",
      "when": 0.0448949999999968
    },
    {
      "buttonsDown": 0,
      "fingers": [
        {
          "flags": 0,
          "orientation": 0,
          "positionX": 381,
          "positionY": 302,
          "pressure": 53,
          "touchMajor": 0,
          "touchMinor": 0,
          "trackingId": 758,
          "widthMajor": 0,
          "widthMinor": 0
        }
      ],
      "timestamp": 1880.217851,
      "touchCount": 1,
      "type": "hardwareState"
    },
    {
      "type": "callbackRequest",
      "when": 0.035931999999775144
    },
    {
      "buttonsDown": 0,
      "fingers": [
        {
          "flags": 0,
          "orientation": 0,
          "positionX": 397,
          "positionY": 305,
          "pressure": 53,
          "touchMajor": 0,
          "touchMinor": 0,
          "trackingId": 758,
          "widthMajor": 0,
          "widthMinor": 0
        }
      ],
      "timestamp": 1880.226881,
      "touchCount": 1,
      "type": "hardwareState"
    },
    {
      "type": "callbackRequest",
      "when": 0.026901999999836335
    },
    {
      "buttonsDown": 0,
      "fingers": [
        {
          "flags": 0,
          "orientation": 0,
          "positionX": 422,
          "positionY": 307,
          "pressure": 51,
          "touchMajor": 0,
          "touchMinor": 0,
          "trackingId": 758,
          "widthMajor": 0,
          "widthMinor": 0
        }
      ],
      "timestamp": 1880.235634,
      "touchCount": 1,
      "type": "hardwareState"
    },
    {
      "type": "callbackRequest",
      "when": 0.018148999999993976
    },
    {
      "buttonsDown": 0,
      "fingers": [
        {
          "flags": 0,
          "orientation": 0,
          "positionX": 452,
          "positionY": 310,
          "pressure": 50,
          "touchMajor": 0,
          "touchMinor": 0,
          "trackingId": 758,
          "widthMajor": 0,
          "widthMinor": 0
        }
      ],
      "timestamp": 1880.244536,
      "touchCount": 1,
      "type": "hardwareState"
    },
    {
      "dx": 76,
      "dy": 9,
      "endTime": 1880.244536,
      "gestureType": "move",
      "startTime": 1880.235634,
      "type": "gesture"
    },
    {
      "type": "callbackRequest",
      "when": 0.009246999999959371
    },
    {
      "buttonsDown": 0,
      "fingers": [
        {
          "flags": 0,
          "orientation": 0,
          "positionX": 478,
          "positionY": 314,
          "pressure": 51,
          "touchMajor": 0,
          "touchMinor": 0,
          "trackingId": 758,
          "widthMajor": 0,
          "widthMinor": 0
        }
      ],
      "timestamp": 1880.253409,
      "touchCount": 1,
      "type": "hardwareState"
    },
    {
      "dx": 64,
      "dy": 11,
      "endTime": 1880.253409,
      "gestureType": "move",
      "startTime": 1880.244536,
      "type": "gesture"
    },
    {
      "type": "callbackRequest",
      "when": 0.0003739999999652355
    },
    {
      "now": 1880.254722538,
      "type": "timerCallback"
    },
    {
      "endTime": 1880.254722538,
      "flingState": 1,
      "gestureType": "fling",
      "startTime": 1880.253409,
      "type": "gesture",
      "vx": 0,
      "vy": 0
    },
    {
      "buttonsDown": 0,
      "fingers": [
        {
          "flags": 0,
          "orientation": 0,
          "positionX": 505,
          "positionY": 317,
          "pressure": 49,
          "touchMajor": 0,
          "touchMinor": 0,
          "trackingId": 758,
          "widthMajor": 0,
          "widthMinor": 0
        }
      ],
      "timestamp": 1880.262237,
      "touchCount": 1,
      "type": "hardwareState"
    },
    {
      "dx": 67,
      "dy": 9,
      "endTime": 1880.262237,
      "gestureType": "move",
      "startTime": 1880.253409,
      "type": "gesture"
    },
    {
      "type": "callbackRequest",
      "when": 0
    },
    {
      "buttonsDown": 0,
      "fingers": [
        {
          "flags": 0,
          "orientation": 0,
          "positionX": 538,
          "positionY": 320,
          "pressure": 49,
          "touchMajor": 0,
          "touchMinor": 0,
          "trackingId": 758,
          "widthMajor": 0,
          "widthMinor": 0
        }
      ],
      "timestamp": 1880.271237,
      "touchCount": 1,
      "type": "hardwareState"
    },
    {
      "dx": 87,
      "dy": 10,
      "endTime": 1880.271237,
      "gestureType": "move",
      "startTime": 1880.262237,
      "type": "gesture"
    },
    {
      "type": "callbackRequest",
      "when": 0
    },
    {
      "buttonsDown": 0,
      "fingers": [
        {
          "flags": 0,
          "orientation": 0,
          "positionX": 560,
          "positionY": 321,
          "pressure": 48,
          "touchMajor": 0,
          "touchMinor": 0,
          "trackingId": 758,
          "widthMajor": 0,
          "widthMinor": 0
        }
      ],
      "timestamp": 1880.280152,
      "touchCount": 1,
      "type": "hardwareState"
    },
    {
      "dx": 48,
      "dy": 2,
      "endTime": 1880.280152,
      "gestureType": "move",
      "startTime": 1880.271237,
      "type": "gesture"
    },
    {
      "type": "callbackRequest",
      "when": 0
    },
    {
      "buttonsDown": 0,
      "fingers": [
        {
          "flags": 0,
          "orientation": 0,
          "positionX": 588,
          "positionY": 321,
          "pressure": 47,
          "touchMajor": 0,
          "touchMinor": 0,
          "trackingId": 758,
          "widthMajor": 0,
          "widthMinor": 0
        }
      ],
      "timestamp": 1880.28905,
      "touchCount": 1,
      "type": "hardwareState"
    },
    {
      "dx": 70,
      "dy": 0,
      "endTime": 1880.28905,
      "gestureType": "move",
      "startTime": 1880.280152,
      "type": "gesture"
    },
    {
      "type": "callbackRequest",
      "when": 0
    },
    {
      "buttonsDown": 0,
      "fingers": [
        {
          "flags": 0,
          "orientation": 0,
          "positionX": 618,
          "positionY": 321,
          "pressure": 48,
          "touchMajor": 0,
          "touchMinor": 0,
          "trackingId": 758,
          "widthMajor": 0,
          "widthMinor": 0
        }
      ],
      "timestamp": 1880.298098,
      "touchCount": 1,
      "type": "hardwareState"
    },
    {
      "dx": 77,
      "dy": 0,
      "endTime": 1880.298098,
      "gestureType": "move",
      "startTime": 1880.28905,
      "type": "gesture"
    },
    {
      "type": "callbackRequest",
      "when": 0
    },
    {
      "buttonsDown": 0,
      "fingers": [
        {
          "flags": 0,
          "orientation": 0,
          "positionX": 641,
          "positionY": 322,
          "pressure": 47,
          "touchMajor": 0,
          "touchMinor": 0,
          "trackingId": 758,
          "widthMajor": 0,
          "widthMinor": 0
        }
      ],
      "timestamp": 1880.306949,
      "touchCount": 1,
      "type": "hardwareState"
    },
    {
      "dx": 52,
      "dy": 3,
      "endTime": 1880.306949,
      "gestureType": "move",
      "startTime": 1880.298098,
      "type": "gesture"
    },
    {
      "type": "callbackRequest",
      "when": 0
    },
    {
      "buttonsDown": 0,
      "fingers": [
        {
          "flags": 0,
          "orientation": 0,
          "positionX": 662,
          "positionY": 322,
          "pressure": 45,
          "touchMajor": 0,
          "touchMinor": 0,
          "trackingId": 758,
          "widthMajor": 0,
          "widthMinor": 0
        }
      ],
      "timestamp": 1880.315837,
      "touchCount": 1,
      "type": "hardwareState"
    },
    {
      "dx": 45,
      "dy": 0,
      "endTime": 1880.315837,
      "gestureType": "move",
      "startTime": 1880.306949,
      "type": "gesture"
    },
    {
      "type": "callbackRequest",
      "when": 0
    },
    {
      "buttonsDown": 0,
      "fingers": [
        {
          "flags": 0,
          "orientation": 0,
          "positionX": 686,
          "positionY": 322,
          "pressure": 45,
          "touchMajor": 0,
          "touchMinor": 0,
          "trackingId": 758,
          "widthMajor": 0,
          "widthMinor": 0
        }
      ],
      "timestamp": 1880.324574,
      "touchCount": 1,
      "type": "hardwareState"
    },
    {
      "dx": 57,
      "dy": 0,
      "endTime": 1880.324574,
      "gestureType": "move",
      "startTime": 1880.315837,
      "type": "gesture"
    },
    {
      "type": "callbackRequest",
      "when": 0
    },
    {
      "buttonsDown": 0,
      "fingers": [
        {
          "flags": 0,
          "orientation": 0,
          "positionX": 702,
          "positionY": 322,
          "pressure": 42,
          "touchMajor": 0,
          "touchMinor": 0,
          "trackingId": 758,
          "widthMajor": 0,
          "widthMinor": 0
        }
      ],
      "timestamp": 1880.333537,
      "touchCount": 1,
      "type": "hardwareState"
    },
    {
      "dx": 27,
      "dy": 0,
      "endTime": 1880.333537,
      "gestureType": "move",
      "startTime": 1880.324574,
      "type": "gesture"
    },
    {
      "type": "callbackRequest",
      "when": 0
    },
    {
      "buttonsDown": 0,
      "fingers": [
        {
          "flags": 0,
          "orientation": 0,
          "positionX": 710,
          "positionY": 322,
          "pressure": 34,
          "touchMajor": 0,
          "touchMinor": 0,
          "trackingId": 758,
          "widthMajor": 0,
          "widthMinor": 0
        }
      ],
      "timestamp": 1880.342577,
      "touchCount": 1,
      "type": "hardwareState"
    },
    {
      "type": "callbackRequest",
      "when": 0
    },
    {
      "buttonsDown": 0,
      "fingers": [
        {
          "flags": 0,
          "orientation": 0,
          "positionX": 713,
          "positionY": 322,
          "pressure": 13,
          "touchMajor": 0,
          "touchMinor": 0,
          "trackingId": 758,
          "widthMajor": 0,
          "widthMinor": 0
        }
      ],
      "timestamp": 1880.351494,
      "touchCount": 1,
      "type": "hardwareState"
    },
    {
      "type": "callbackRequest",
      "when": 0
    },
    {
      "buttonsDown": 0,
      "fingers": [],
      "timestamp": 1880.358922,
      "touchCount": 0,
      "type": "hardwareState"
    },
    {
      "type": "callbackRequest",
      "when": 0
    },
    {
      "buttonsDown": 0,
      "fingers": [
        {
          "flags": 0,
          "orientation": 0,
          "positionX": 377,
          "positionY": 321,
          "pressure": 7,
          "touchMajor": 0,
          "touchMinor": 0,
          "trackingId": 759,
          "widthMajor": 0,
          "widthMinor": 0
        }
      ],
      "timestamp": 1880.469622,
      "touchCount": 1,
      "type": "hardwareState"
    },
    {
      "type": "callbackRequest",
      "when": 0.01700000000005275
    },
    {
      "buttonsDown": 0,
      "fingers": [
        {
          "flags": 0,
          "orientation": 0,
          "positionX": 375,
          "positionY": 324,
          "pressure": 49,
          "touchMajor": 0,
          "touchMinor": 0,
          "trackingId": 759,
          "widthMajor": 0,
          "widthMinor": 0
        }
      ],
      "timestamp": 1880.478348,
      "touchCount": 1,
      "type": "hardwareState"
    },
    {
      "type": "callbackRequest",
      "when": 0.008274000000028536
    },
    {
      "now": 1880.486766032,
      "type": "timerCallback"
    },
    {
      "type": "callbackRequest",
      "when": 0.07127399999990303
    },
    {
      "buttonsDown": 0,
      "fingers": [
        {
          "flags": 0,
          "orientation": 0,
          "positionX": 373,
          "positionY": 324,
          "pressure": 51,
          "touchMajor": 0,
          "touchMinor": 0,
          "trackingId": 759,
          "widthMajor": 0,
          "widthMinor": 0
        }
      ],
      "timestamp": 1880.487351,
      "touchCount": 1,
      "type": "hardwareState"
    },
    {
      "type": "callbackRequest",
      "when": 0.062271000000009735
    },
    {
      "buttonsDown": 0,
      "fingers": [
        {
          "flags": 0,
          "orientation": 0,
          "positionX": 373,
          "positionY": 324,
          "pressure": 52,
          "touchMajor": 0,
          "touchMinor": 0,
          "trackingId": 759,
          "widthMajor": 0,
          "widthMinor": 0
        }
      ],
      "timestamp": 1880.496294,
      "touchCount": 1,
      "type": "hardwareState"
    },
    {
      "type": "callbackRequest",
      "when": 0.05332799999996496
    },
    {
      "buttonsDown": 0,
      "fingers": [
        {
          "flags": 0,
          "orientation": 0,
          "positionX": 373,
          "positionY": 324,
          "pressure": 54,
          "touchMajor": 0,
          "touchMinor": 0,
          "trackingId": 759,
          "widthMajor": 0,
          "widthMinor": 0
        }
      ],
      "timestamp": 1880.505067,
      "touchCount": 1,
      "type": "hardwareState"
    },
    {
      "type": "callbackRequest",
      "when": 0.04455499999994572
    },
    {
      "buttonsDown": 0,
      "fingers": [
        {
          "flags": 0,
          "orientation": 0,
          "positionX": 374,
          "positionY": 324,
          "pressure": 54,
          "touchMajor": 0,
          "touchMinor": 0,
          "trackingId": 759,
          "widthMajor": 0,
          "widthMinor": 0
        }
      ],
      "timestamp": 1880.514143,
      "touchCount": 1,
      "type": "hardwareState"
    },
    {
      "type": "callbackRequest",
      "when": 0.03547899999989568
    },
    {
      "buttonsDown": 0,
      "fingers": [
        {
          "flags": 0,
          "orientation": 0,
          "positionX": 383,
          "positionY": 325,
          "pressure": 55,
          "touchMajor": 0,
          "touchMinor": 0,
          "trackingId": 759,
          "widthMajor": 0,
          "widthMinor": 0
        }
      ],
      "timestamp": 1880.523042,
      "touchCount": 1,
      "type": "hardwareState"
    },
    {
      "type": "callbackRequest",
      "when": 0.026579999999967185
    },
    {
      "buttonsDown": 0,
      "fingers": [
        {
          "flags": 0,
          "orientation": 0,
          "positionX": 401,
          "positionY": 328,
          "pressure": 54,
          "touchMajor": 0,
          "touchMinor": 0,
          "trackingId": 759,
          "widthMajor": 0,
          "widthMinor": 0
        }
      ],
      "timestamp": 1880.531898,
      "touchCount": 1,
      "type": "hardwareState"
    },
    {
      "type": "callbackRequest",
      "when": 0.017724000000043816
    },
    {
      "buttonsDown": 0,
      "fingers": [
        {
          "flags": 0,
          "orientation": 0,
          "positionX": 427,
          "positionY": 330,
          "pressure": 52,
          "touchMajor": 0,
          "touchMinor": 0,
          "trackingId": 759,
          "widthMajor": 0,
          "widthMinor": 0
        }
      ],
      "timestamp": 1880.540711,
      "touchCount": 1,
      "type": "hardwareState"
    },
    {
      "type": "callbackRequest",
      "when": 0.008910999999898195
    },
    {
      "buttonsDown": 0,
      "fingers": [
        {
          "flags": 0,
          "orientation": 0,
          "positionX": 463,
          "positionY": 333,
          "pressure": 53,
          "touchMajor": 0,
          "touchMinor": 0,
          "trackingId": 759,
          "widthMajor": 0,
          "widthMinor": 0
        }
      ],
      "timestamp": 1880.549498,
      "touchCount": 1,
      "type": "hardwareState"
    },
    {
      "dx": 77,
      "dy": 9,
      "endTime": 1880.549498,
      "gestureType": "move",
      "startTime": 1880.540711,
      "type": "gesture"
    },
    {
      "type": "callbackRequest",
      "when": 0.00012399999991430377
    },
    {
      "now": 1880.550795968,
      "type": "timerCallback"
    },
    {
      "endTime": 1880.550795968,
      "flingState": 1,
      "gestureType": "fling",
      "startTime": 1880.549498,
      "type": "gesture",
      "vx": 0,
      "vy": 0
    },
    {
      "buttonsDown": 0,
      "fingers": [
        {
          "flags": 0,
          "orientation": 0,
          "positionX": 490,
          "positionY": 337,
          "pressure": 52,
          "touchMajor": 0,
          "touchMinor": 0,
          "trackingId": 759,
          "widthMajor": 0,
          "widthMinor": 0
        }
      ],
      "timestamp": 1880.558263,
      "touchCount": 1,
      "type": "hardwareState"
    },
    {
      "dx": 67,
      "dy": 12,
      "endTime": 1880.558263,
      "gestureType": "move",
      "startTime": 1880.549498,
      "type": "gesture"
    },
    {
      "type": "callbackRequest",
      "when": 0
    },
    {
      "buttonsDown": 0,
      "fingers": [
        {
          "flags": 0,
          "orientation": 0,
          "positionX": 532,
          "positionY": 340,
          "pressure": 49,
          "touchMajor": 0,
          "touchMinor": 0,
          "trackingId": 759,
          "widthMajor": 0,
          "widthMinor": 0
        }
      ],
      "timestamp": 1880.567186,
      "touchCount": 1,
      "type": "hardwareState"
    },
    {
      "dx": 119,
      "dy": 10,
      "endTime": 1880.567186,
      "gestureType": "move",
      "startTime": 1880.558263,
      "type": "gesture"
    },
    {
      "type": "callbackRequest",
      "when": 0
    },
    {
      "buttonsDown": 0,
      "fingers": [
        {
          "flags": 0,
          "orientation": 0,
          "positionX": 562,
          "positionY": 341,
          "pressure": 51,
          "touchMajor": 0,
          "touchMinor": 0,
          "trackingId": 759,
          "widthMajor": 0,
          "widthMinor": 0
        }
      ],
      "timestamp": 1880.576052,
      "touchCount": 1,
      "type": "hardwareState"
    },
    {
      "dx": 77,
      "dy": 3,
      "endTime": 1880.576052,
      "gestureType": "move",
      "startTime": 1880.567186,
      "type": "gesture"
    },
    {
      "type": "callbackRequest",
      "when": 0
    },
    {
      "buttonsDown": 0,
      "fingers": [
        {
          "flags": 0,
          "orientation": 0,
          "positionX": 599,
          "positionY": 343,
          "pressure": 47,
          "touchMajor": 0,
          "touchMinor": 0,
          "trackingId": 759,
          "widthMajor": 0,
          "widthMinor": 0
        }
      ],
      "timestamp": 1880.584628,
      "touchCount": 1,
      "type": "hardwareState"
    },
    {
      "type": "callbackRequest",
      "when": 0
    },
    {
      "buttonsDown": 0,
      "fingers": [
        {
          "flags": 0,
          "orientation": 0,
          "positionX": 636,
          "positionY": 342,
          "pressure": 48,
          "touchMajor": 0,
          "touchMinor": 0,
          "trackingId": 759,
          "widthMajor": 0,
          "widthMinor": 0
        }
      ],
      "timestamp": 1880.593423,
      "touchCount": 1,
      "type": "hardwareState"
    },
    {
      "dx": 101,
      "dy": 0,
      "endTime": 1880.593423,
      "gestureType": "move",
      "startTime": 1880.584628,
      "type": "gesture"
    },
    {
      "type": "callbackRequest",
      "when": 0
    },
    {
      "buttonsDown": 0,
      "fingers": [
        {
          "flags": 0,
          "orientation": 0,
          "positionX": 671,
          "positionY": 338,
          "pressure": 47,
          "touchMajor": 0,
          "touchMinor": 0,
          "trackingId": 759,
          "widthMajor": 0,
          "widthMinor": 0
        }
      ],
      "timestamp": 1880.602071,
      "touchCount": 1,
      "type": "hardwareState"
    },
    {
      "dx": 95,
      "dy": 0,
      "endTime": 1880.602071,
      "gestureType": "move",
      "startTime": 1880.593423,
      "type": "gesture"
    },
    {
      "type": "callbackRequest",
      "when": 0
    },
    {
      "buttonsDown": 0,
      "fingers": [
        {
          "flags": 0,
          "orientation": 0,
          "positionX": 707,
          "positionY": 336,
          "pressure": 47,
          "touchMajor": 0,
          "touchMinor": 0,
          "trackingId": 759,
          "widthMajor": 0,
          "widthMinor": 0
        }
      ],
      "timestamp": 1880.610811,
      "touchCount": 1,
      "type": "hardwareState"
    },
    {
      "dx": 98,
      "dy": -2,
      "endTime": 1880.610811,
      "gestureType": "move",
      "startTime": 1880.602071,
      "type": "gesture"
    },
    {
      "type": "callbackRequest",
      "when": 0
    },
    {
      "buttonsDown": 0,
      "fingers": [
        {
          "flags": 0,
          "orientation": 0,
          "positionX": 732,
          "positionY": 333,
          "pressure": 46,
          "touchMajor": 0,
          "touchMinor": 0,
          "trackingId": 759,
          "widthMajor": 0,
          "widthMinor": 0
        }
      ],
      "timestamp": 1880.619556,
      "touchCount": 1,
      "type": "hardwareState"
    },
    {
      "dx": 60,
      "dy": -9,
      "endTime": 1880.619556,
      "gestureType": "move",
      "startTime": 1880.610811,
      "type": "gesture"
    },
    {
      "type": "callbackRequest",
      "when": 0
    },
    {
      "buttonsDown": 0,
      "fingers": [
        {
          "flags": 0,
          "orientation": 0,
          "positionX": 760,
          "positionY": 333,
          "pressure": 42,
          "touchMajor": 0,
          "touchMinor": 0,
          "trackingId": 759,
          "widthMajor": 0,
          "widthMinor": 0
        }
      ],
      "timestamp": 1880.628192,
      "touchCount": 1,
      "type": "hardwareState"
    },
    {
      "type": "callbackRequest",
      "when": 0
    },
    {
      "buttonsDown": 0,
      "fingers": [
        {
          "flags": 0,
          "orientation": 0,
          "positionX": 785,
          "positionY": 332,
          "pressure": 41,
          "touchMajor": 0,
          "touchMinor": 0,
          "trackingId": 759,
          "widthMajor": 0,
          "widthMinor": 0
        }
      ],
      "timestamp": 1880.636982,
      "touchCount": 1,
      "type": "hardwareState"
    },
    {
      "dx": 60,
      "dy": -3,
      "endTime": 1880.636982,
      "gestureType": "move",
      "startTime": 1880.628192,
      "type": "gesture"
    },
    {
      "type": "callbackRequest",
      "when": 0
    },
    {
      "buttonsDown": 0,
      "fingers": [
        {
          "flags": 0,
          "orientation": 0,
          "positionX": 799,
          "positionY": 332,
          "pressure": 35,
          "touchMajor": 0,
          "touchMinor": 0,
          "trackingId": 759,
          "widthMajor": 0,
          "widthMinor": 0
        }
      ],
      "timestamp": 1880.645754,
      "touchCount": 1,
      "type": "hardwareState"
    },
    {
      "type": "callbackRequest",
      "when": 0
    },
    {
      "buttonsDown": 0,
      "fingers": [
        {
          "flags": 0,
          "orientation": 0,
          "positionX": 810,
          "positionY": 334,
          "pressure": 18,
          "touchMajor": 0,
          "touchMinor": 0,
          "trackingId": 759,
          "widthMajor": 0,
          "widthMinor": 0
        }
      ],
      "timestamp": 1880.654558,
      "touchCount": 1,
      "type": "hardwareState"
    },
    {
      "type": "callbackRequest",
      "when": 0
    },
    {
      "buttonsDown": 0,
      "fingers": [
        {
          "flags": 0,
          "orientation": 0,
          "positionX": 824,
          "positionY": 329,
          "pressure": 5,
          "touchMajor": 0,
          "touchMinor": 0,
          "trackingId": 759,
          "widthMajor": 0,
          "widthMinor": 0
        }
      ],
      "timestamp": 1880.663304,
      "touchCount": 1,
      "type": "hardwareState"
    },
    {
      "type": "callbackRequest",
      "when": 0
    },
    {
      "buttonsDown": 0,
      "fingers": [],
      "timestamp": 1880.6708,
      "touchCount": 0,
      "type": "hardwareState"
    },
    {
      "type": "callbackRequest",
      "when": 0
    },
    {
      "buttonsDown": 0,
      "fingers": [
        {
          "flags": 0,
          "orientation": 0,
          "positionX": 339,
          "positionY": 329,
          "pressure": 45,
          "touchMajor": 0,
          "touchMinor": 0,
          "trackingId": 760,
          "widthMajor": 0,
          "widthMinor": 0
        }
      ],
      "timestamp": 1880.79723,
      "touchCount": 1,
      "type": "hardwareState"
    },
    {
      "type": "callbackRequest",
      "when": 0.01700000000005275
    },
    {
      "buttonsDown": 0,
      "fingers": [
        {
          "flags": 0,
          "orientation": 0,
          "positionX": 339,
          "positionY": 330,
          "pressure": 50,
          "touchMajor": 0,
          "touchMinor": 0,
          "trackingId": 760,
          "widthMajor": 0,
          "widthMinor": 0
        }
      ],
      "timestamp": 1880.806159,
      "touchCount": 1,
      "type": "hardwareState"
    },
    {
      "type": "callbackRequest",
      "when": 0.008070999999972628
    },
    {
      "now": 1880.814407853,
      "type": "timerCallback"
    },
    {
      "type": "callbackRequest",
      "when": 0.07107099999984712
    },
    {
      "buttonsDown": 0,
      "fingers": [
        {
          "flags": 0,
          "orientation": 0,
          "positionX": 339,
          "positionY": 330,
          "pressure": 51,
          "touchMajor": 0,
          "touchMinor": 0,
          "trackingId": 760,
          "widthMajor": 0,
          "widthMinor": 0
        }
      ],
      "timestamp": 1880.815094,
      "touchCount": 1,
      "type": "hardwareState"
    },
    {
      "type": "callbackRequest",
      "when": 0.06213599999978214
    },
    {
      "buttonsDown": 0,
      "fingers": [
        {
          "flags": 0,
          "orientation": 0,
          "positionX": 340,
          "positionY": 330,
          "pressure": 53,
          "touchMajor": 0,
          "touchMinor": 0,
          "trackingId": 760,
          "widthMajor": 0,
          "widthMinor": 0
        }
      ],
      "timestamp": 1880.823998,
      "touchCount": 1,
      "type": "hardwareState"
    },
    {
      "type": "callbackRequest",
      "when": 0.05323199999975259
    },
    {
      "buttonsDown": 0,
      "fingers": [
        {
          "flags": 0,
          "orientation": 0,
          "positionX": 344,
          "positionY": 330,
          "pressure": 53,
          "touchMajor": 0,
          "touchMinor": 0,
          "trackingId": 760,
          "widthMajor": 0,
          "widthMinor": 0
        }
      ],
      "timestamp": 1880.832913,
      "touchCount": 1,
      "type": "hardwareState"
    },
    {
      "type": "callbackRequest",
      "when": 0.04431699999986449
    },
    {
      "buttonsDown": 0,
      "fingers": [
        {
          "flags": 0,
          "orientation": 0,
          "positionX": 364,
          "positionY": 330,
          "pressure": 55,
          "touchMajor": 0,
          "touchMinor": 0,
          "trackingId": 760,
          "widthMajor": 0,
          "widthMinor": 0
        }
      ],
      "timestamp": 1880.841514,
      "touchCount": 1,
      "type": "hardwareState"
    },
    {
      "type": "callbackRequest",
      "when": 0.035715999999865744
    },
    {
      "buttonsDown": 0,
      "fingers": [
        {
          "flags": 0,
          "orientation": 0,
          "positionX": 391,
          "positionY": 330,
          "pressure": 55,
          "touchMajor": 0,
          "touchMinor": 0,
          "trackingId": 760,
          "widthMajor": 0,
          "widthMinor": 0
        }
      ],
      "timestamp": 1880.850394,
      "touchCount": 1,
      "type": "hardwareState"
    },
    {
      "type": "callbackRequest",
      "when": 0.026835999999775595
    },
    {
      "buttonsDown": 0,
      "fingers": [
        {
          "flags": 0,
          "orientation": 0,
          "positionX": 412,
          "positionY": 333,
          "pressure": 52,
          "touchMajor": 0,
          "touchMinor": 0,
          "trackingId": 760,
          "widthMajor": 0,
          "widthMinor": 0
        }
      ],
      "timestamp": 1880.859391,
      "touchCount": 1,
      "type": "hardwareState"
    },
    {
      "dx": 24,
      "dy": 0,
      "endTime": 1880.859391,
      "gestureType": "move",
      "startTime": 1880.850394,
      "type": "gesture"
    },
    {
      "type": "callbackRequest",
      "when": 0.017838999999867156
    },
    {
      "buttonsDown": 0,
      "fingers": [
        {
          "flags": 0,
          "orientation": 0,
          "positionX": 447,
          "positionY": 336,
          "pressure": 53,
          "touchMajor": 0,
          "touchMinor": 0,
          "trackingId": 760,
          "widthMajor": 0,
          "widthMinor": 0
        }
      ],
      "timestamp": 1880.868122,
      "touchCount": 1,
      "type": "hardwareState"
    },
    {
      "dx": 95,
      "dy": 6,
      "endTime": 1880.868122,
      "gestureType": "move",
      "startTime": 1880.859391,
      "type": "gesture"
    },
    {
      "type": "callbackRequest",
      "when": 0.009107999999741878
    },
    {
      "buttonsDown": 0,
      "fingers": [
        {
          "flags": 0,
          "orientation": 0,
          "positionX": 479,
          "positionY": 339,
          "pressure": 51,
          "touchMajor": 0,
          "touchMinor": 0,
          "trackingId": 760,
          "widthMajor": 0,
          "widthMinor": 0
        }
      ],
      "timestamp": 1880.877112,
      "touchCount": 1,
      "type": "hardwareState"
    },
    {
      "dx": 83,
      "dy": 9,
      "endTime": 1880.877112,
      "gestureType": "move",
      "startTime": 1880.868122,
      "type": "gesture"
    },
    {
      "type": "callbackRequest",
      "when": 0.00011799999992945231
    },
    {
      "now": 1880.878472202,
      "type": "timerCallback"
    },
    {
      "endTime": 1880.878472202,
      "flingState": 1,
      "gestureType": "fling",
      "startTime": 1880.877112,
      "type": "gesture",
      "vx": 0,
      "vy": 0
    },
    {
      "buttonsDown": 0,
      "fingers": [
        {
          "flags": 0,
          "orientation": 0,
          "positionX": 512,
          "positionY": 345,
          "pressure": 49,
          "touchMajor": 0,
          "touchMinor": 0,
          "trackingId": 760,
          "widthMajor": 0,
          "widthMinor": 0
        }
      ],
      "timestamp": 1880.88568,
      "touchCount": 1,
      "type": "hardwareState"
    },
    {
      "dx": 89,
      "dy": 20,
      "endTime": 1880.88568,
      "gestureType": "move",
      "startTime": 1880.877112,
      "type": "gesture"
    },
    {
      "type": "callbackRequest",
      "when": 0
    },
    {
      "buttonsDown": 0,
      "fingers": [
        {
          "flags": 0,
          "orientation": 0,
          "positionX": 549,
          "positionY": 346,
          "pressure": 51,
          "touchMajor": 0,
          "touchMinor": 0,
          "trackingId": 760,
          "widthMajor": 0,
          "widthMinor": 0
        }
      ],
      "timestamp": 1880.894347,
      "touchCount": 1,
      "type": "hardwareState"
    },
    {
      "dx": 102,
      "dy": 3,
      "endTime": 1880.894347,
      "gestureType": "move",
      "startTime": 1880.88568,
      "type": "gesture"
    },
    {
      "type": "callbackRequest",
      "when": 0
    },
    {
      "buttonsDown": 0,
      "fingers": [
        {
          "flags": 0,
          "orientation": 0,
          "positionX": 579,
          "positionY": 350,
          "pressure": 49,
          "touchMajor": 0,
          "touchMinor": 0,
          "trackingId": 760,
          "widthMajor": 0,
          "widthMinor": 0
        }
      ],
      "timestamp": 1880.903227,
      "touchCount": 1,
      "type": "hardwareState"
    },
    {
      "dx": 77,
      "dy": 12,
      "endTime": 1880.903227,
      "gestureType": "move",
      "startTime": 1880.894347,
      "type": "gesture"
    },
    {
      "type": "callbackRequest",
      "when": 0
    },
    {
      "buttonsDown": 0,
      "fingers": [
        {
          "flags": 0,
          "orientation": 0,
          "positionX": 623,
          "positionY": 351,
          "pressure": 48,
          "touchMajor": 0,
          "touchMinor": 0,
          "trackingId": 760,
          "widthMajor": 0,
          "widthMinor": 0
        }
      ],
      "timestamp": 1880.912154,
      "touchCount": 1,
      "type": "hardwareState"
    },
    {
      "dx": 126,
      "dy": 4,
      "endTime": 1880.912154,
      "gestureType": "move",
      "startTime": 1880.903227,
      "type": "gesture"
    },
    {
      "type": "callbackRequest",
      "when": 0
    },
    {
      "buttonsDown": 0,
      "fingers": [
        {
          "flags": 0,
          "orientation": 0,
          "positionX": 654,
          "positionY": 351,
          "pressure": 46,
          "touchMajor": 0,
          "touchMinor": 0,
          "trackingId": 760,
          "widthMajor": 0,
          "widthMinor": 0
        }
      ],
      "timestamp": 1880.921199,
      "touchCount": 1,
      "type": "hardwareState"
    },
    {
      "dx": 80,
      "dy": 0,
      "endTime": 1880.921199,
      "gestureType": "move",
      "startTime": 1880.912154,
      "type": "gesture"
    },
    {
      "type": "callbackRequest",
      "when": 0
    },
    {
      "buttonsDown": 0,
      "fingers": [
        {
          "flags": 0,
          "orientation": 0,
          "positionX": 695,
          "positionY": 351,
          "pressure": 46,
          "touchMajor": 0,
          "touchMinor": 0,
          "trackingId": 760,
          "widthMajor": 0,
          "widthMinor": 0
        }
      ],
      "timestamp": 1880.929874,
      "touchCount": 1,
      "type": "hardwareState"
    },
    {
      "dx": 115,
      "dy": 0,
      "endTime": 1880.929874,
      "gestureType": "move",
      "startTime": 1880.921199,
      "type": "gesture"
    },
    {
      "type": "callbackRequest",
      "when": 0
    },
    {
      "buttonsDown": 0,
      "fingers": [
        {
          "flags": 0,
          "orientation": 0,
          "positionX": 722,
          "positionY": 352,
          "pressure": 44,
          "touchMajor": 0,
          "touchMinor": 0,
          "trackingId": 760,
          "widthMajor": 0,
          "widthMinor": 0
        }
      ],
      "timestamp": 1880.938728,
      "touchCount": 1,
      "type": "hardwareState"
    },
    {
      "dx": 67,
      "dy": 3,
      "endTime": 1880.938728,
      "gestureType": "move",
      "startTime": 1880.929874,
      "type": "gesture"
    },
    {
      "type": "callbackRequest",
      "when": 0
    },
    {
      "buttonsDown": 0,
      "fingers": [
        {
          "flags": 0,
          "orientation": 0,
          "positionX": 752,
          "positionY": 358,
          "pressure": 40,
          "touchMajor": 0,
          "touchMinor": 0,
          "trackingId": 760,
          "widthMajor": 0,
          "widthMinor": 0
        }
      ],
      "timestamp": 1880.94745,
      "touchCount": 1,
      "type": "hardwareState"
    },
    {
      "type": "callbackRequest",
      "when": 0
    },
    {
      "buttonsDown": 0,
      "fingers": [
        {
          "flags": 0,
          "orientation": 0,
          "positionX": 780,
          "positionY": 364,
          "pressure": 25,
          "touchMajor": 0,
          "touchMinor": 0,
          "trackingId": 760,
          "widthMajor": 0,
          "widthMinor": 0
        }
      ],
      "timestamp": 1880.956264,
      "touchCount": 1,
      "type": "hardwareState"
    },
    {
      "type": "callbackRequest",
      "when": 0
    },
    {
      "buttonsDown": 0,
      "fingers": [],
      "timestamp": 1880.964063,
      "touchCount": 0,
      "type": "hardwareState"
    },
    {
      "type": "callbackRequest",
      "when": 0
    }
  ],
  "gesturesVersion": "9999-66b2b639d887c95e2b1a9b24201a3e8b924b4d95",
  "hardwareProperties": {
    "bottom": 680,
    "isButtonPad": true,
    "left": 0,
    "maxFingerCount": 15,
    "maxTouchCount": 5,
    "right": 1280,
    "semiMt": false,
    "supportsT5R2": false,
    "top": 0,
    "xDpi": 133,
    "xResolution": 12,
    "yDpi": 133,
    "yResolution": 10
  },
  "properties": {
    "Apple TP Filter Enable": false,
    "Bottom Zone Size": 10,
    "Box Width": 1,
    "Button Evaluation Timeout": 0.03,
    "Change Min Move Distance": 3,
    "Change Timeout": 0.04,
    "Damp Scroll Min Move Factor": 0.2,
    "Drumroll Co Move Ratio": 1.2,
    "Drumroll Max Speed Change Factor": 15,
    "Drumroll Speed Thresh": 400,
    "Evaluation Timeout": 0.2,
    "Fling Buffer Depth": 3,
    "Fling Stop Timeout": 0.08,
    "Horizontal Scroll Snap Slope": 0.5773502588272095,
    "IIR Distance Threshold": 1000,
    "IIR a1": 0,
    "IIR a2": 0,
    "IIR b0": 1,
    "IIR b1": 0,
    "IIR b2": 0,
    "IIR b3": 0,
    "Input Queue Delay": 0,
    "Input Queue Max Delay": 0.017,
    "Input Queue Min Nonsuppression Speed": 200,
    "Inter-Tap Timeout": 0.15,
    "Keyboard Palm Prevent Timeout": 0.5,
    "Keyboard Touched Timeval High": 1934,
    "Keyboard Touched Timeval Low": 764639,
    "Logging Notify": 1,
    "Logging Reset": 0,
    "Max Allowed Pressure Change Per Sec": 800,
    "Max Hysteresis Pressure Per Sec": 600,
    "Merge Max Ratio": 0.32556813955307007,
    "Min Interpolate Period": 0.021,
    "Motion Tap Prevent Timeout": 0.05,
    "No-Pinch Certain Ratio": 100,
    "No-Pinch Guess Ratio": 50,
    "One Finger Click Wiggle Timeout": 0.2,
    "Palm Edge Zone Min Point Speed": 100,
    "Palm Edge Zone Width": 14,
    "Palm Eval Timeout": 0.1,
    "Palm Pressure": 200,
    "Palm Stationary Distance": 4,
    "Palm Stationary Time": 2,
    "Palm Width": 21.2,
    "Pinch Certain Minimal Movement": 8,
    "Pinch Enable": true,
    "Pinch Guess Minimal Movement": 4,
    "Pinch Noise Level": 1,
    "Point X Out Scale": 1,
    "Point Y Out Scale": 1,
    "Pointer Accel Curve": "",
    "Pressure Calibration Offset": -4.0418716653545,
    "Pressure Calibration Slope": 1.9403694168841,
    "Pressure Minimum Threshold": 0,
    "Quick Move Distance Thresh": 3,
    "Scroll Accel Curve": "",
    "Scroll Stationary Finger Max Distance": 1,
    "Scroll X Out Scale": 1.25,
    "Scroll Y Out Scale": 1.25,
    "SemiMT Clip Non Linear Area": true,
    "SemiMT Correcting Filter Enable": false,
    "SemiMT Finger Jump Distance": 260,
    "SemiMT Finger Move Threshold": 130,
    "SemiMT Hysteresis Pressure": 25,
    "SemiMT Max Sensor Jump Distance": 910,
    "SemiMT Min Sensor Jump Distance": 150,
    "SemiMT Non Linear Area Bottom": 4570,
    "SemiMT Non Linear Area Left": 1360,
    "SemiMT Non Linear Area Right": 5560,
    "SemiMT Non Linear Area Top": 1250,
    "SemiMT Pressure Threshold": 30,
    "Sensitivity": 3,
    "Sensor Jump Filter Enable": true,
    "Sensor Jump Max Dist": 7.5,
    "Sensor Jump Min Dist": 0.9,
    "Sensor Jump Similar Multiplier": 0.9,
    "Split Merge Max Movement": 3,
    "Split Merge Max Separation": 17,
    "Suppress Immediate Tapdown": true,
    "T5R2 Three Finger Click Enable": false,
    "T5R2 Touch Count Correct Enabled": true,
    "Tap Drag Delay": 0.1,
    "Tap Drag Lock Enable": false,
    "Tap Drag Stationary Time": 0.05,
    "Tap Drag Timeout": 0.3,
    "Tap Enable": true,
    "Tap Exclusion Border Width": 8,
    "Tap Maximum Movement": 0.0001,
    "Tap Min Separation": 10,
    "Tap Minimum Pressure": 25,
    "Tap Move Distance": 2,
    "Tap Paused": false,
    "Tap Timeout": 0.2,
    "Three Finger Click Enable": false,
    "Three Finger Close Distance Thresh": 50,
    "Three Finger Swipe Distance Thresh": 10,
    "Thumb Evaluation Timeout": 0.06,
    "Thumb Movement Factor": 0.5,
    "Touchpad Device Output Bias on X-Axis": 0,
    "Touchpad Device Output Bias on Y-Axis": 0,
    "Two Finger Horizontal Close Distance Thresh": 50,
    "Two Finger Pressure Diff Factor": 1.65,
    "Two Finger Pressure Diff Thresh": 32,
    "Two Finger Scroll Distance Thresh": 2,
    "Two Finger Vertical Close Distance Thresh": 30,
    "Vertical Scroll Snap Slope": 1.191753625869751,
    "Wiggle Button Down Timeout": 0.75,
    "Wiggle Max Distance": 5.5,
    "Wiggle Timeout": 0.075
  },
  "version": 1
}
